xof 0302txt 0032
Header {
 1;
 0;
 1;
}
template Header {
 <3D82AB43-62DA-11cf-AB39-0020AF71E433>
 WORD major;
 WORD minor;
 DWORD flags;
}

template Vector {
 <3D82AB5E-62DA-11cf-AB39-0020AF71E433>
 FLOAT x;
 FLOAT y;
 FLOAT z;
}

template Coords2d {
 <F6F23F44-7686-11cf-8F52-0040333594A3>
 FLOAT u;
 FLOAT v;
}

template Matrix4x4 {
 <F6F23F45-7686-11cf-8F52-0040333594A3>
 array FLOAT matrix[16];
}

template ColorRGBA {
 <35FF44E0-6C7C-11cf-8F52-0040333594A3>
 FLOAT red;
 FLOAT green;
 FLOAT blue;
 FLOAT alpha;
}

template ColorRGB {
 <D3E16E81-7835-11cf-8F52-0040333594A3>
 FLOAT red;
 FLOAT green;
 FLOAT blue;
}

template TextureFilename {
 <A42790E1-7810-11cf-8F52-0040333594A3>
 STRING filename;
}

template Material {
 <3D82AB4D-62DA-11cf-AB39-0020AF71E433>
 ColorRGBA faceColor;
 FLOAT power;
 ColorRGB specularColor;
 ColorRGB emissiveColor;
 [...]
}

template MeshFace {
 <3D82AB5F-62DA-11cf-AB39-0020AF71E433>
 DWORD nFaceVertexIndices;
 array DWORD faceVertexIndices[nFaceVertexIndices];
}

template MeshTextureCoords {
 <F6F23F40-7686-11cf-8F52-0040333594A3>
 DWORD nTextureCoords;
 array Coords2d textureCoords[nTextureCoords];
}

template MeshMaterialList {
 <F6F23F42-7686-11cf-8F52-0040333594A3>
 DWORD nMaterials;
 DWORD nFaceIndexes;
 array DWORD faceIndexes[nFaceIndexes];
 [Material]
}

template MeshNormals {
 <F6F23F43-7686-11cf-8F52-0040333594A3>
 DWORD nNormals;
 array Vector normals[nNormals];
 DWORD nFaceNormals;
 array MeshFace faceNormals[nFaceNormals];
}

template Mesh {
 <3D82AB44-62DA-11cf-AB39-0020AF71E433>
 DWORD nVertices;
 array Vector vertices[nVertices];
 DWORD nFaces;
 array MeshFace faces[nFaces];
 [...]
}

template FrameTransformMatrix {
 <F6F23F41-7686-11cf-8F52-0040333594A3>
 Matrix4x4 frameMatrix;
}

template Frame {
 <3D82AB46-62DA-11cf-AB39-0020AF71E433>
 [...]
}
template FloatKeys {
 <10DD46A9-775B-11cf-8F52-0040333594A3>
 DWORD nValues;
 array FLOAT values[nValues];
}

template TimedFloatKeys {
 <F406B180-7B3B-11cf-8F52-0040333594A3>
 DWORD time;
 FloatKeys tfkeys;
}

template AnimationKey {
 <10DD46A8-775B-11cf-8F52-0040333594A3>
 DWORD keyType;
 DWORD nKeys;
 array TimedFloatKeys keys[nKeys];
}

template AnimationOptions {
 <E2BF56C0-840F-11cf-8F52-0040333594A3>
 DWORD openclosed;
 DWORD positionquality;
}

template Animation {
 <3D82AB4F-62DA-11cf-AB39-0020AF71E433>
 [...]
}

template AnimationSet {
 <3D82AB50-62DA-11cf-AB39-0020AF71E433>
 [Animation]
}

template XSkinMeshHeader {
 <3cf169ce-ff7c-44ab-93c0-f78f62d172e2>
 WORD nMaxSkinWeightsPerVertex;
 WORD nMaxSkinWeightsPerFace;
 WORD nBones;
}

template VertexDuplicationIndices {
 <b8d65549-d7c9-4995-89cf-53a9a8b031e3>
 DWORD nIndices;
 DWORD nOriginalVertices;
 array DWORD indices[nIndices];
}

template SkinWeights {
 <6f0d123b-bad2-4167-a0d0-80224f25fabb>
 STRING transformNodeName;
 DWORD nWeights;
 array DWORD vertexIndices[nWeights];
 array FLOAT weights[nWeights];
 Matrix4x4 matrixOffset;
}
Frame W_rfel {
   FrameTransformMatrix {
1.000000,0.000000,0.000000,0.000000,
0.000000,1.000000,0.000000,0.000000,
0.000000,0.000000,1.000000,0.000000,
0.000000,0.000000,0.000000,1.000000;;
 }
Mesh W_rfel1 {
 456;
0.360000;-0.593983;-0.413405;,
-0.360000;-0.593983;-0.413405;,
-0.360000;-0.600000;-0.360000;,
0.360000;-0.600000;-0.360000;,
0.360000;-0.576233;-0.464132;,
-0.360000;-0.576233;-0.464132;,
0.360000;-0.547640;-0.509638;,
-0.360000;-0.547640;-0.509638;,
0.360000;-0.509638;-0.547640;,
-0.360000;-0.509638;-0.547640;,
0.360000;-0.464132;-0.576233;,
-0.360000;-0.464132;-0.576233;,
0.360000;-0.413405;-0.593983;,
-0.360000;-0.413405;-0.593983;,
0.360000;-0.360000;-0.600000;,
-0.360000;-0.360000;-0.600000;,
0.360000;0.360000;-0.600000;,
-0.360000;0.360000;-0.600000;,
0.360000;0.413405;-0.593983;,
-0.360000;0.413405;-0.593983;,
0.360000;0.464132;-0.576233;,
-0.360000;0.464132;-0.576233;,
0.360000;0.509638;-0.547640;,
-0.360000;0.509638;-0.547640;,
0.360000;0.547640;-0.509638;,
-0.360000;0.547640;-0.509638;,
0.360000;0.576233;-0.464132;,
-0.360000;0.576233;-0.464132;,
0.360000;0.593983;-0.413405;,
-0.360000;0.593983;-0.413405;,
0.360000;0.600000;-0.360000;,
-0.360000;0.600000;-0.360000;,
0.371884;-0.593983;-0.412066;,
0.383172;-0.576233;-0.461521;,
0.393297;-0.547640;-0.505886;,
0.401754;-0.509638;-0.542935;,
0.408116;-0.464132;-0.570811;,
0.412066;-0.413405;-0.588116;,
0.413405;-0.360000;-0.593983;,
0.413405;0.360000;-0.593983;,
0.412066;0.413405;-0.588116;,
0.408116;0.464132;-0.570811;,
0.401754;0.509638;-0.542935;,
0.393297;0.547640;-0.505886;,
0.383172;0.576233;-0.461521;,
0.371884;0.593983;-0.412066;,
0.383172;-0.593983;-0.408116;,
0.405181;-0.576233;-0.453820;,
0.424925;-0.547640;-0.494819;,
0.441414;-0.509638;-0.529057;,
0.453820;-0.464132;-0.554819;,
0.461521;-0.413405;-0.570811;,
0.464132;-0.360000;-0.576233;,
0.464132;0.360000;-0.576233;,
0.461521;0.413405;-0.570811;,
0.453820;0.464132;-0.554819;,
0.441414;0.509638;-0.529057;,
0.424925;0.547640;-0.494819;,
0.405181;0.576233;-0.453820;,
0.383172;0.593983;-0.408116;,
0.393297;-0.593983;-0.401754;,
0.424925;-0.576233;-0.441414;,
0.453297;-0.547640;-0.476991;,
0.476991;-0.509638;-0.506703;,
0.494819;-0.464132;-0.529057;,
0.505886;-0.413405;-0.542935;,
0.509638;-0.360000;-0.547640;,
0.509638;0.360000;-0.547640;,
0.505886;0.413405;-0.542935;,
0.494819;0.464132;-0.529057;,
0.476991;0.509638;-0.506703;,
0.453297;0.547640;-0.476991;,
0.424925;0.576233;-0.441414;,
0.393297;0.593983;-0.401754;,
0.401754;-0.593983;-0.393297;,
0.441414;-0.576233;-0.424925;,
0.476991;-0.547640;-0.453297;,
0.506703;-0.509638;-0.476991;,
0.529057;-0.464132;-0.494819;,
0.542935;-0.413405;-0.505886;,
0.547640;-0.360000;-0.509638;,
0.547640;0.360000;-0.509638;,
0.542935;0.413405;-0.505886;,
0.529057;0.464132;-0.494819;,
0.506703;0.509638;-0.476991;,
0.476991;0.547640;-0.453297;,
0.441414;0.576233;-0.424925;,
0.401754;0.593983;-0.393297;,
0.408116;-0.593983;-0.383172;,
0.453820;-0.576233;-0.405181;,
0.494819;-0.547640;-0.424925;,
0.529057;-0.509638;-0.441414;,
0.554819;-0.464132;-0.453820;,
0.570811;-0.413405;-0.461521;,
0.576233;-0.360000;-0.464132;,
0.576233;0.360000;-0.464132;,
0.570811;0.413405;-0.461521;,
0.554819;0.464132;-0.453820;,
0.529057;0.509638;-0.441414;,
0.494819;0.547640;-0.424925;,
0.453820;0.576233;-0.405181;,
0.408116;0.593983;-0.383172;,
0.412066;-0.593983;-0.371884;,
0.461521;-0.576233;-0.383172;,
0.505886;-0.547640;-0.393297;,
0.542935;-0.509638;-0.401754;,
0.570811;-0.464132;-0.408116;,
0.588116;-0.413405;-0.412066;,
0.593983;-0.360000;-0.413405;,
0.593983;0.360000;-0.413405;,
0.588116;0.413405;-0.412066;,
0.570811;0.464132;-0.408116;,
0.542935;0.509638;-0.401754;,
0.505886;0.547640;-0.393297;,
0.461521;0.576233;-0.383172;,
0.412066;0.593983;-0.371884;,
0.413405;-0.593983;-0.360000;,
0.464132;-0.576233;-0.360000;,
0.509638;-0.547640;-0.360000;,
0.547640;-0.509638;-0.360000;,
0.576233;-0.464132;-0.360000;,
0.593983;-0.413405;-0.360000;,
0.600000;-0.360000;-0.360000;,
0.600000;0.360000;-0.360000;,
0.593983;0.413405;-0.360000;,
0.576233;0.464132;-0.360000;,
0.547640;0.509638;-0.360000;,
0.509638;0.547640;-0.360000;,
0.464132;0.576233;-0.360000;,
0.413405;0.593983;-0.360000;,
0.413405;-0.593983;0.360000;,
0.360000;-0.600000;0.360000;,
0.464132;-0.576233;0.360000;,
0.509638;-0.547640;0.360000;,
0.547640;-0.509638;0.360000;,
0.576233;-0.464132;0.360000;,
0.593983;-0.413405;0.360000;,
0.600000;-0.360000;0.360000;,
0.600000;0.360000;0.360000;,
0.593983;0.413405;0.360000;,
0.576233;0.464132;0.360000;,
0.547640;0.509638;0.360000;,
0.509638;0.547640;0.360000;,
0.464132;0.576233;0.360000;,
0.413405;0.593983;0.360000;,
0.360000;0.600000;0.360000;,
0.412066;-0.593983;0.371884;,
0.461521;-0.576233;0.383172;,
0.505886;-0.547640;0.393298;,
0.542935;-0.509638;0.401754;,
0.570811;-0.464132;0.408116;,
0.588116;-0.413405;0.412066;,
0.593983;-0.360000;0.413405;,
0.593983;0.360000;0.413405;,
0.588116;0.413405;0.412066;,
0.570811;0.464132;0.408116;,
0.542935;0.509638;0.401754;,
0.505886;0.547640;0.393298;,
0.461521;0.576233;0.383172;,
0.412066;0.593983;0.371884;,
0.408116;-0.593983;0.383172;,
0.453820;-0.576233;0.405181;,
0.494819;-0.547640;0.424925;,
0.529057;-0.509638;0.441414;,
0.554819;-0.464132;0.453820;,
0.570811;-0.413405;0.461521;,
0.576233;-0.360000;0.464132;,
0.576233;0.360000;0.464132;,
0.570811;0.413405;0.461521;,
0.554819;0.464132;0.453820;,
0.529057;0.509638;0.441414;,
0.494819;0.547640;0.424925;,
0.453820;0.576233;0.405181;,
0.408116;0.593983;0.383172;,
0.401754;-0.593983;0.393297;,
0.441414;-0.576233;0.424925;,
0.476991;-0.547640;0.453297;,
0.506703;-0.509638;0.476991;,
0.529057;-0.464132;0.494819;,
0.542935;-0.413405;0.505886;,
0.547640;-0.360000;0.509638;,
0.547640;0.360000;0.509638;,
0.542935;0.413405;0.505886;,
0.529057;0.464132;0.494819;,
0.506703;0.509638;0.476991;,
0.476991;0.547640;0.453297;,
0.441414;0.576233;0.424925;,
0.401754;0.593983;0.393297;,
0.393297;-0.593983;0.401754;,
0.424925;-0.576233;0.441414;,
0.453297;-0.547640;0.476991;,
0.476991;-0.509638;0.506703;,
0.494819;-0.464132;0.529057;,
0.505886;-0.413405;0.542935;,
0.509638;-0.360000;0.547640;,
0.509638;0.360000;0.547640;,
0.505886;0.413405;0.542935;,
0.494819;0.464132;0.529057;,
0.476991;0.509638;0.506703;,
0.453297;0.547640;0.476991;,
0.424925;0.576233;0.441414;,
0.393297;0.593983;0.401754;,
0.383172;-0.593983;0.408116;,
0.405181;-0.576233;0.453820;,
0.424925;-0.547640;0.494819;,
0.441414;-0.509638;0.529057;,
0.453820;-0.464132;0.554819;,
0.461521;-0.413405;0.570811;,
0.464132;-0.360000;0.576233;,
0.464132;0.360000;0.576233;,
0.461521;0.413405;0.570811;,
0.453820;0.464132;0.554819;,
0.441414;0.509638;0.529057;,
0.424925;0.547640;0.494819;,
0.405181;0.576233;0.453820;,
0.383172;0.593983;0.408116;,
0.371884;-0.593983;0.412066;,
0.383172;-0.576233;0.461521;,
0.393297;-0.547640;0.505886;,
0.401754;-0.509638;0.542935;,
0.408116;-0.464132;0.570811;,
0.412066;-0.413405;0.588116;,
0.413405;-0.360000;0.593983;,
0.413405;0.360000;0.593983;,
0.412066;0.413405;0.588116;,
0.408116;0.464132;0.570811;,
0.401754;0.509638;0.542935;,
0.393297;0.547640;0.505886;,
0.383172;0.576233;0.461521;,
0.371884;0.593983;0.412066;,
0.360000;-0.593983;0.413405;,
0.360000;-0.576233;0.464132;,
0.360000;-0.547640;0.509638;,
0.360000;-0.509638;0.547640;,
0.360000;-0.464132;0.576233;,
0.360000;-0.413405;0.593983;,
0.360000;-0.360000;0.600000;,
0.360000;0.360000;0.600000;,
0.360000;0.413405;0.593983;,
0.360000;0.464132;0.576233;,
0.360000;0.509638;0.547640;,
0.360000;0.547640;0.509638;,
0.360000;0.576233;0.464132;,
0.360000;0.593983;0.413405;,
-0.360000;-0.593983;0.413405;,
-0.360000;-0.600000;0.360000;,
-0.360000;-0.576233;0.464132;,
-0.360000;-0.547640;0.509638;,
-0.360000;-0.509638;0.547640;,
-0.360000;-0.464132;0.576233;,
-0.360000;-0.413405;0.593983;,
-0.360000;-0.360000;0.600000;,
-0.360000;0.360000;0.600000;,
-0.360000;0.413405;0.593983;,
-0.360000;0.464132;0.576233;,
-0.360000;0.509638;0.547640;,
-0.360000;0.547640;0.509638;,
-0.360000;0.576233;0.464132;,
-0.360000;0.593983;0.413405;,
-0.360000;0.600000;0.360000;,
-0.371884;-0.593983;0.412066;,
-0.383172;-0.576233;0.461521;,
-0.393297;-0.547640;0.505886;,
-0.401754;-0.509638;0.542935;,
-0.408116;-0.464132;0.570811;,
-0.412066;-0.413405;0.588116;,
-0.413405;-0.360000;0.593983;,
-0.413405;0.360000;0.593983;,
-0.412066;0.413405;0.588116;,
-0.408116;0.464132;0.570811;,
-0.401754;0.509638;0.542935;,
-0.393297;0.547640;0.505886;,
-0.383172;0.576233;0.461521;,
-0.371884;0.593983;0.412066;,
-0.383172;-0.593983;0.408116;,
-0.405181;-0.576233;0.453820;,
-0.424925;-0.547640;0.494819;,
-0.441414;-0.509638;0.529057;,
-0.453820;-0.464132;0.554819;,
-0.461521;-0.413405;0.570811;,
-0.464132;-0.360000;0.576232;,
-0.464132;0.360000;0.576232;,
-0.461521;0.413405;0.570811;,
-0.453820;0.464132;0.554819;,
-0.441414;0.509638;0.529057;,
-0.424925;0.547640;0.494819;,
-0.405181;0.576233;0.453820;,
-0.383172;0.593983;0.408116;,
-0.393297;-0.593983;0.401754;,
-0.424925;-0.576233;0.441414;,
-0.453297;-0.547640;0.476991;,
-0.476991;-0.509638;0.506702;,
-0.494819;-0.464132;0.529057;,
-0.505886;-0.413405;0.542935;,
-0.509638;-0.360000;0.547640;,
-0.509638;0.360000;0.547640;,
-0.505886;0.413405;0.542935;,
-0.494819;0.464132;0.529057;,
-0.476991;0.509638;0.506702;,
-0.453297;0.547640;0.476991;,
-0.424925;0.576233;0.441414;,
-0.393297;0.593983;0.401754;,
-0.401754;-0.593983;0.393297;,
-0.441414;-0.576233;0.424925;,
-0.476991;-0.547640;0.453298;,
-0.506702;-0.509638;0.476991;,
-0.529057;-0.464132;0.494819;,
-0.542935;-0.413405;0.505886;,
-0.547640;-0.360000;0.509638;,
-0.547640;0.360000;0.509638;,
-0.542935;0.413405;0.505886;,
-0.529057;0.464132;0.494819;,
-0.506702;0.509638;0.476991;,
-0.476991;0.547640;0.453298;,
-0.441414;0.576233;0.424925;,
-0.401754;0.593983;0.393297;,
-0.408116;-0.593983;0.383172;,
-0.453820;-0.576233;0.405181;,
-0.494819;-0.547640;0.424925;,
-0.529057;-0.509638;0.441414;,
-0.554819;-0.464132;0.453820;,
-0.570811;-0.413405;0.461521;,
-0.576233;-0.360000;0.464132;,
-0.576233;0.360000;0.464132;,
-0.570811;0.413405;0.461521;,
-0.554819;0.464132;0.453820;,
-0.529057;0.509638;0.441414;,
-0.494819;0.547640;0.424925;,
-0.453820;0.576233;0.405181;,
-0.408116;0.593983;0.383172;,
-0.412066;-0.593983;0.371884;,
-0.461521;-0.576233;0.383172;,
-0.505886;-0.547640;0.393297;,
-0.542935;-0.509638;0.401754;,
-0.570811;-0.464132;0.408116;,
-0.588116;-0.413405;0.412066;,
-0.593983;-0.360000;0.413405;,
-0.593983;0.360000;0.413405;,
-0.588116;0.413405;0.412066;,
-0.570811;0.464132;0.408116;,
-0.542935;0.509638;0.401754;,
-0.505886;0.547640;0.393297;,
-0.461521;0.576233;0.383172;,
-0.412066;0.593983;0.371884;,
-0.413405;-0.593983;0.360000;,
-0.464132;-0.576233;0.360000;,
-0.509638;-0.547640;0.360000;,
-0.547640;-0.509638;0.360000;,
-0.576233;-0.464132;0.360000;,
-0.593983;-0.413405;0.360000;,
-0.600000;-0.360000;0.360000;,
-0.600000;0.360000;0.360000;,
-0.593983;0.413405;0.360000;,
-0.576233;0.464132;0.360000;,
-0.547640;0.509638;0.360000;,
-0.509638;0.547640;0.360000;,
-0.464132;0.576233;0.360000;,
-0.413405;0.593983;0.360000;,
-0.413405;-0.593983;-0.360000;,
-0.464132;-0.576233;-0.360000;,
-0.509638;-0.547640;-0.360000;,
-0.547640;-0.509638;-0.360000;,
-0.576233;-0.464132;-0.360000;,
-0.593983;-0.413405;-0.360000;,
-0.600000;-0.360000;-0.360000;,
-0.600000;0.360000;-0.360000;,
-0.593983;0.413405;-0.360000;,
-0.576233;0.464132;-0.360000;,
-0.547640;0.509638;-0.360000;,
-0.509638;0.547640;-0.360000;,
-0.464132;0.576233;-0.360000;,
-0.413405;0.593983;-0.360000;,
-0.412066;-0.593983;-0.371884;,
-0.461521;-0.576233;-0.383172;,
-0.505886;-0.547640;-0.393298;,
-0.542935;-0.509638;-0.401754;,
-0.570811;-0.464132;-0.408116;,
-0.588116;-0.413405;-0.412066;,
-0.593983;-0.360000;-0.413405;,
-0.593983;0.360000;-0.413405;,
-0.588116;0.413405;-0.412066;,
-0.570811;0.464132;-0.408116;,
-0.542935;0.509638;-0.401754;,
-0.505886;0.547640;-0.393298;,
-0.461521;0.576233;-0.383172;,
-0.412066;0.593983;-0.371884;,
-0.408116;-0.593983;-0.383172;,
-0.453820;-0.576233;-0.405181;,
-0.494819;-0.547640;-0.424925;,
-0.529057;-0.509638;-0.441414;,
-0.554819;-0.464132;-0.453820;,
-0.570811;-0.413405;-0.461521;,
-0.576233;-0.360000;-0.464132;,
-0.576233;0.360000;-0.464132;,
-0.570811;0.413405;-0.461521;,
-0.554819;0.464132;-0.453820;,
-0.529057;0.509638;-0.441414;,
-0.494819;0.547640;-0.424925;,
-0.453820;0.576233;-0.405181;,
-0.408116;0.593983;-0.383172;,
-0.401754;-0.593983;-0.393297;,
-0.441414;-0.576233;-0.424925;,
-0.476991;-0.547640;-0.453298;,
-0.506702;-0.509638;-0.476991;,
-0.529057;-0.464132;-0.494819;,
-0.542935;-0.413405;-0.505886;,
-0.547640;-0.360000;-0.509638;,
-0.547640;0.360000;-0.509638;,
-0.542935;0.413405;-0.505886;,
-0.529057;0.464132;-0.494819;,
-0.506702;0.509638;-0.476991;,
-0.476991;0.547640;-0.453298;,
-0.441414;0.576233;-0.424925;,
-0.401754;0.593983;-0.393297;,
-0.393297;-0.593983;-0.401754;,
-0.424925;-0.576233;-0.441414;,
-0.453297;-0.547640;-0.476991;,
-0.476991;-0.509638;-0.506703;,
-0.494819;-0.464132;-0.529057;,
-0.505886;-0.413405;-0.542935;,
-0.509638;-0.360000;-0.547640;,
-0.509638;0.360000;-0.547640;,
-0.505886;0.413405;-0.542935;,
-0.494819;0.464132;-0.529057;,
-0.476991;0.509638;-0.506703;,
-0.453297;0.547640;-0.476991;,
-0.424925;0.576233;-0.441414;,
-0.393297;0.593983;-0.401754;,
-0.383172;-0.593983;-0.408116;,
-0.405181;-0.576233;-0.453820;,
-0.424925;-0.547640;-0.494819;,
-0.441414;-0.509638;-0.529057;,
-0.453820;-0.464132;-0.554819;,
-0.461521;-0.413405;-0.570811;,
-0.464132;-0.360000;-0.576233;,
-0.464132;0.360000;-0.576233;,
-0.461521;0.413405;-0.570811;,
-0.453820;0.464132;-0.554819;,
-0.441414;0.509638;-0.529057;,
-0.424925;0.547640;-0.494819;,
-0.405181;0.576233;-0.453820;,
-0.383172;0.593983;-0.408116;,
-0.371884;-0.593983;-0.412066;,
-0.383172;-0.576233;-0.461521;,
-0.393297;-0.547640;-0.505886;,
-0.401754;-0.509638;-0.542935;,
-0.408116;-0.464132;-0.570811;,
-0.412066;-0.413405;-0.588116;,
-0.413405;-0.360000;-0.593983;,
-0.413405;0.360000;-0.593983;,
-0.412066;0.413405;-0.588116;,
-0.408116;0.464132;-0.570811;,
-0.401754;0.509638;-0.542935;,
-0.393297;0.547640;-0.505886;,
-0.383172;0.576233;-0.461521;,
-0.371884;0.593983;-0.412066;;

 908;
3;2,1,0;,
3;2,0,3;,
3;1,5,4;,
3;1,4,0;,
3;5,7,6;,
3;5,6,4;,
3;7,9,8;,
3;7,8,6;,
3;9,11,10;,
3;9,10,8;,
3;11,13,12;,
3;11,12,10;,
3;13,15,14;,
3;13,14,12;,
3;15,17,16;,
3;15,16,14;,
3;17,19,18;,
3;17,18,16;,
3;19,21,20;,
3;19,20,18;,
3;21,23,22;,
3;21,22,20;,
3;23,25,24;,
3;23,24,22;,
3;25,27,26;,
3;25,26,24;,
3;27,29,28;,
3;27,28,26;,
3;29,31,30;,
3;29,30,28;,
3;3,0,32;,
3;0,4,33;,
3;0,33,32;,
3;4,6,34;,
3;4,34,33;,
3;6,8,35;,
3;6,35,34;,
3;8,10,36;,
3;8,36,35;,
3;10,12,37;,
3;10,37,36;,
3;12,14,38;,
3;12,38,37;,
3;14,16,39;,
3;14,39,38;,
3;16,18,40;,
3;16,40,39;,
3;18,20,41;,
3;18,41,40;,
3;20,22,42;,
3;20,42,41;,
3;22,24,43;,
3;22,43,42;,
3;24,26,44;,
3;24,44,43;,
3;26,28,45;,
3;26,45,44;,
3;28,30,45;,
3;3,32,46;,
3;32,33,47;,
3;32,47,46;,
3;33,34,48;,
3;33,48,47;,
3;34,35,49;,
3;34,49,48;,
3;35,36,50;,
3;35,50,49;,
3;36,37,51;,
3;36,51,50;,
3;37,38,52;,
3;37,52,51;,
3;38,39,53;,
3;38,53,52;,
3;39,40,54;,
3;39,54,53;,
3;40,41,55;,
3;40,55,54;,
3;41,42,56;,
3;41,56,55;,
3;42,43,57;,
3;42,57,56;,
3;43,44,58;,
3;43,58,57;,
3;44,45,59;,
3;44,59,58;,
3;45,30,59;,
3;3,46,60;,
3;46,47,61;,
3;46,61,60;,
3;47,48,62;,
3;47,62,61;,
3;48,49,63;,
3;48,63,62;,
3;49,50,64;,
3;49,64,63;,
3;50,51,65;,
3;50,65,64;,
3;51,52,66;,
3;51,66,65;,
3;52,53,67;,
3;52,67,66;,
3;53,54,68;,
3;53,68,67;,
3;54,55,69;,
3;54,69,68;,
3;55,56,70;,
3;55,70,69;,
3;56,57,71;,
3;56,71,70;,
3;57,58,72;,
3;57,72,71;,
3;58,59,73;,
3;58,73,72;,
3;59,30,73;,
3;3,60,74;,
3;60,61,75;,
3;60,75,74;,
3;61,62,76;,
3;61,76,75;,
3;62,63,77;,
3;62,77,76;,
3;63,64,78;,
3;63,78,77;,
3;64,65,79;,
3;64,79,78;,
3;65,66,80;,
3;65,80,79;,
3;66,67,81;,
3;66,81,80;,
3;67,68,82;,
3;67,82,81;,
3;68,69,83;,
3;68,83,82;,
3;69,70,84;,
3;69,84,83;,
3;70,71,85;,
3;70,85,84;,
3;71,72,86;,
3;71,86,85;,
3;72,73,87;,
3;72,87,86;,
3;73,30,87;,
3;3,74,88;,
3;74,75,89;,
3;74,89,88;,
3;75,76,90;,
3;75,90,89;,
3;76,77,91;,
3;76,91,90;,
3;77,78,92;,
3;77,92,91;,
3;78,79,93;,
3;78,93,92;,
3;79,80,94;,
3;79,94,93;,
3;80,81,95;,
3;80,95,94;,
3;81,82,96;,
3;81,96,95;,
3;82,83,97;,
3;82,97,96;,
3;83,84,98;,
3;83,98,97;,
3;84,85,99;,
3;84,99,98;,
3;85,86,100;,
3;85,100,99;,
3;86,87,101;,
3;86,101,100;,
3;87,30,101;,
3;3,88,102;,
3;88,89,103;,
3;88,103,102;,
3;89,90,104;,
3;89,104,103;,
3;90,91,105;,
3;90,105,104;,
3;91,92,106;,
3;91,106,105;,
3;92,93,107;,
3;92,107,106;,
3;93,94,108;,
3;93,108,107;,
3;94,95,109;,
3;94,109,108;,
3;95,96,110;,
3;95,110,109;,
3;96,97,111;,
3;96,111,110;,
3;97,98,112;,
3;97,112,111;,
3;98,99,113;,
3;98,113,112;,
3;99,100,114;,
3;99,114,113;,
3;100,101,115;,
3;100,115,114;,
3;101,30,115;,
3;3,102,116;,
3;102,103,117;,
3;102,117,116;,
3;103,104,118;,
3;103,118,117;,
3;104,105,119;,
3;104,119,118;,
3;105,106,120;,
3;105,120,119;,
3;106,107,121;,
3;106,121,120;,
3;107,108,122;,
3;107,122,121;,
3;108,109,123;,
3;108,123,122;,
3;109,110,124;,
3;109,124,123;,
3;110,111,125;,
3;110,125,124;,
3;111,112,126;,
3;111,126,125;,
3;112,113,127;,
3;112,127,126;,
3;113,114,128;,
3;113,128,127;,
3;114,115,129;,
3;114,129,128;,
3;115,30,129;,
3;3,116,130;,
3;3,130,131;,
3;116,117,132;,
3;116,132,130;,
3;117,118,133;,
3;117,133,132;,
3;118,119,134;,
3;118,134,133;,
3;119,120,135;,
3;119,135,134;,
3;120,121,136;,
3;120,136,135;,
3;121,122,137;,
3;121,137,136;,
3;122,123,138;,
3;122,138,137;,
3;123,124,139;,
3;123,139,138;,
3;124,125,140;,
3;124,140,139;,
3;125,126,141;,
3;125,141,140;,
3;126,127,142;,
3;126,142,141;,
3;127,128,143;,
3;127,143,142;,
3;128,129,144;,
3;128,144,143;,
3;129,30,145;,
3;129,145,144;,
3;131,130,146;,
3;130,132,147;,
3;130,147,146;,
3;132,133,148;,
3;132,148,147;,
3;133,134,149;,
3;133,149,148;,
3;134,135,150;,
3;134,150,149;,
3;135,136,151;,
3;135,151,150;,
3;136,137,152;,
3;136,152,151;,
3;137,138,153;,
3;137,153,152;,
3;138,139,154;,
3;138,154,153;,
3;139,140,155;,
3;139,155,154;,
3;140,141,156;,
3;140,156,155;,
3;141,142,157;,
3;141,157,156;,
3;142,143,158;,
3;142,158,157;,
3;143,144,159;,
3;143,159,158;,
3;144,145,159;,
3;131,146,160;,
3;146,147,161;,
3;146,161,160;,
3;147,148,162;,
3;147,162,161;,
3;148,149,163;,
3;148,163,162;,
3;149,150,164;,
3;149,164,163;,
3;150,151,165;,
3;150,165,164;,
3;151,152,166;,
3;151,166,165;,
3;152,153,167;,
3;152,167,166;,
3;153,154,168;,
3;153,168,167;,
3;154,155,169;,
3;154,169,168;,
3;155,156,170;,
3;155,170,169;,
3;156,157,171;,
3;156,171,170;,
3;157,158,172;,
3;157,172,171;,
3;158,159,173;,
3;158,173,172;,
3;159,145,173;,
3;131,160,174;,
3;160,161,175;,
3;160,175,174;,
3;161,162,176;,
3;161,176,175;,
3;162,163,177;,
3;162,177,176;,
3;163,164,178;,
3;163,178,177;,
3;164,165,179;,
3;164,179,178;,
3;165,166,180;,
3;165,180,179;,
3;166,167,181;,
3;166,181,180;,
3;167,168,182;,
3;167,182,181;,
3;168,169,183;,
3;168,183,182;,
3;169,170,184;,
3;169,184,183;,
3;170,171,185;,
3;170,185,184;,
3;171,172,186;,
3;171,186,185;,
3;172,173,187;,
3;172,187,186;,
3;173,145,187;,
3;131,174,188;,
3;174,175,189;,
3;174,189,188;,
3;175,176,190;,
3;175,190,189;,
3;176,177,191;,
3;176,191,190;,
3;177,178,192;,
3;177,192,191;,
3;178,179,193;,
3;178,193,192;,
3;179,180,194;,
3;179,194,193;,
3;180,181,195;,
3;180,195,194;,
3;181,182,196;,
3;181,196,195;,
3;182,183,197;,
3;182,197,196;,
3;183,184,198;,
3;183,198,197;,
3;184,185,199;,
3;184,199,198;,
3;185,186,200;,
3;185,200,199;,
3;186,187,201;,
3;186,201,200;,
3;187,145,201;,
3;131,188,202;,
3;188,189,203;,
3;188,203,202;,
3;189,190,204;,
3;189,204,203;,
3;190,191,205;,
3;190,205,204;,
3;191,192,206;,
3;191,206,205;,
3;192,193,207;,
3;192,207,206;,
3;193,194,208;,
3;193,208,207;,
3;194,195,209;,
3;194,209,208;,
3;195,196,210;,
3;195,210,209;,
3;196,197,211;,
3;196,211,210;,
3;197,198,212;,
3;197,212,211;,
3;198,199,213;,
3;198,213,212;,
3;199,200,214;,
3;199,214,213;,
3;200,201,215;,
3;200,215,214;,
3;201,145,215;,
3;131,202,216;,
3;202,203,217;,
3;202,217,216;,
3;203,204,218;,
3;203,218,217;,
3;204,205,219;,
3;204,219,218;,
3;205,206,220;,
3;205,220,219;,
3;206,207,221;,
3;206,221,220;,
3;207,208,222;,
3;207,222,221;,
3;208,209,223;,
3;208,223,222;,
3;209,210,224;,
3;209,224,223;,
3;210,211,225;,
3;210,225,224;,
3;211,212,226;,
3;211,226,225;,
3;212,213,227;,
3;212,227,226;,
3;213,214,228;,
3;213,228,227;,
3;214,215,229;,
3;214,229,228;,
3;215,145,229;,
3;131,216,230;,
3;216,217,231;,
3;216,231,230;,
3;217,218,232;,
3;217,232,231;,
3;218,219,233;,
3;218,233,232;,
3;219,220,234;,
3;219,234,233;,
3;220,221,235;,
3;220,235,234;,
3;221,222,236;,
3;221,236,235;,
3;222,223,237;,
3;222,237,236;,
3;223,224,238;,
3;223,238,237;,
3;224,225,239;,
3;224,239,238;,
3;225,226,240;,
3;225,240,239;,
3;226,227,241;,
3;226,241,240;,
3;227,228,242;,
3;227,242,241;,
3;228,229,243;,
3;228,243,242;,
3;229,145,243;,
3;131,230,244;,
3;131,244,245;,
3;230,231,246;,
3;230,246,244;,
3;231,232,247;,
3;231,247,246;,
3;232,233,248;,
3;232,248,247;,
3;233,234,249;,
3;233,249,248;,
3;234,235,250;,
3;234,250,249;,
3;235,236,251;,
3;235,251,250;,
3;236,237,252;,
3;236,252,251;,
3;237,238,253;,
3;237,253,252;,
3;238,239,254;,
3;238,254,253;,
3;239,240,255;,
3;239,255,254;,
3;240,241,256;,
3;240,256,255;,
3;241,242,257;,
3;241,257,256;,
3;242,243,258;,
3;242,258,257;,
3;243,145,259;,
3;243,259,258;,
3;245,244,260;,
3;244,246,261;,
3;244,261,260;,
3;246,247,262;,
3;246,262,261;,
3;247,248,263;,
3;247,263,262;,
3;248,249,264;,
3;248,264,263;,
3;249,250,265;,
3;249,265,264;,
3;250,251,266;,
3;250,266,265;,
3;251,252,267;,
3;251,267,266;,
3;252,253,268;,
3;252,268,267;,
3;253,254,269;,
3;253,269,268;,
3;254,255,270;,
3;254,270,269;,
3;255,256,271;,
3;255,271,270;,
3;256,257,272;,
3;256,272,271;,
3;257,258,273;,
3;257,273,272;,
3;258,259,273;,
3;245,260,274;,
3;260,261,275;,
3;260,275,274;,
3;261,262,276;,
3;261,276,275;,
3;262,263,277;,
3;262,277,276;,
3;263,264,278;,
3;263,278,277;,
3;264,265,279;,
3;264,279,278;,
3;265,266,280;,
3;265,280,279;,
3;266,267,281;,
3;266,281,280;,
3;267,268,282;,
3;267,282,281;,
3;268,269,283;,
3;268,283,282;,
3;269,270,284;,
3;269,284,283;,
3;270,271,285;,
3;270,285,284;,
3;271,272,286;,
3;271,286,285;,
3;272,273,287;,
3;272,287,286;,
3;273,259,287;,
3;245,274,288;,
3;274,275,289;,
3;274,289,288;,
3;275,276,290;,
3;275,290,289;,
3;276,277,291;,
3;276,291,290;,
3;277,278,292;,
3;277,292,291;,
3;278,279,293;,
3;278,293,292;,
3;279,280,294;,
3;279,294,293;,
3;280,281,295;,
3;280,295,294;,
3;281,282,296;,
3;281,296,295;,
3;282,283,297;,
3;282,297,296;,
3;283,284,298;,
3;283,298,297;,
3;284,285,299;,
3;284,299,298;,
3;285,286,300;,
3;285,300,299;,
3;286,287,301;,
3;286,301,300;,
3;287,259,301;,
3;245,288,302;,
3;288,289,303;,
3;288,303,302;,
3;289,290,304;,
3;289,304,303;,
3;290,291,305;,
3;290,305,304;,
3;291,292,306;,
3;291,306,305;,
3;292,293,307;,
3;292,307,306;,
3;293,294,308;,
3;293,308,307;,
3;294,295,309;,
3;294,309,308;,
3;295,296,310;,
3;295,310,309;,
3;296,297,311;,
3;296,311,310;,
3;297,298,312;,
3;297,312,311;,
3;298,299,313;,
3;298,313,312;,
3;299,300,314;,
3;299,314,313;,
3;300,301,315;,
3;300,315,314;,
3;301,259,315;,
3;245,302,316;,
3;302,303,317;,
3;302,317,316;,
3;303,304,318;,
3;303,318,317;,
3;304,305,319;,
3;304,319,318;,
3;305,306,320;,
3;305,320,319;,
3;306,307,321;,
3;306,321,320;,
3;307,308,322;,
3;307,322,321;,
3;308,309,323;,
3;308,323,322;,
3;309,310,324;,
3;309,324,323;,
3;310,311,325;,
3;310,325,324;,
3;311,312,326;,
3;311,326,325;,
3;312,313,327;,
3;312,327,326;,
3;313,314,328;,
3;313,328,327;,
3;314,315,329;,
3;314,329,328;,
3;315,259,329;,
3;245,316,330;,
3;316,317,331;,
3;316,331,330;,
3;317,318,332;,
3;317,332,331;,
3;318,319,333;,
3;318,333,332;,
3;319,320,334;,
3;319,334,333;,
3;320,321,335;,
3;320,335,334;,
3;321,322,336;,
3;321,336,335;,
3;322,323,337;,
3;322,337,336;,
3;323,324,338;,
3;323,338,337;,
3;324,325,339;,
3;324,339,338;,
3;325,326,340;,
3;325,340,339;,
3;326,327,341;,
3;326,341,340;,
3;327,328,342;,
3;327,342,341;,
3;328,329,343;,
3;328,343,342;,
3;329,259,343;,
3;245,330,344;,
3;330,331,345;,
3;330,345,344;,
3;331,332,346;,
3;331,346,345;,
3;332,333,347;,
3;332,347,346;,
3;333,334,348;,
3;333,348,347;,
3;334,335,349;,
3;334,349,348;,
3;335,336,350;,
3;335,350,349;,
3;336,337,351;,
3;336,351,350;,
3;337,338,352;,
3;337,352,351;,
3;338,339,353;,
3;338,353,352;,
3;339,340,354;,
3;339,354,353;,
3;340,341,355;,
3;340,355,354;,
3;341,342,356;,
3;341,356,355;,
3;342,343,357;,
3;342,357,356;,
3;343,259,357;,
3;245,344,358;,
3;245,358,2;,
3;344,345,359;,
3;344,359,358;,
3;345,346,360;,
3;345,360,359;,
3;346,347,361;,
3;346,361,360;,
3;347,348,362;,
3;347,362,361;,
3;348,349,363;,
3;348,363,362;,
3;349,350,364;,
3;349,364,363;,
3;350,351,365;,
3;350,365,364;,
3;351,352,366;,
3;351,366,365;,
3;352,353,367;,
3;352,367,366;,
3;353,354,368;,
3;353,368,367;,
3;354,355,369;,
3;354,369,368;,
3;355,356,370;,
3;355,370,369;,
3;356,357,371;,
3;356,371,370;,
3;357,259,31;,
3;357,31,371;,
3;2,358,372;,
3;358,359,373;,
3;358,373,372;,
3;359,360,374;,
3;359,374,373;,
3;360,361,375;,
3;360,375,374;,
3;361,362,376;,
3;361,376,375;,
3;362,363,377;,
3;362,377,376;,
3;363,364,378;,
3;363,378,377;,
3;364,365,379;,
3;364,379,378;,
3;365,366,380;,
3;365,380,379;,
3;366,367,381;,
3;366,381,380;,
3;367,368,382;,
3;367,382,381;,
3;368,369,383;,
3;368,383,382;,
3;369,370,384;,
3;369,384,383;,
3;370,371,385;,
3;370,385,384;,
3;371,31,385;,
3;2,372,386;,
3;372,373,387;,
3;372,387,386;,
3;373,374,388;,
3;373,388,387;,
3;374,375,389;,
3;374,389,388;,
3;375,376,390;,
3;375,390,389;,
3;376,377,391;,
3;376,391,390;,
3;377,378,392;,
3;377,392,391;,
3;378,379,393;,
3;378,393,392;,
3;379,380,394;,
3;379,394,393;,
3;380,381,395;,
3;380,395,394;,
3;381,382,396;,
3;381,396,395;,
3;382,383,397;,
3;382,397,396;,
3;383,384,398;,
3;383,398,397;,
3;384,385,399;,
3;384,399,398;,
3;385,31,399;,
3;2,386,400;,
3;386,387,401;,
3;386,401,400;,
3;387,388,402;,
3;387,402,401;,
3;388,389,403;,
3;388,403,402;,
3;389,390,404;,
3;389,404,403;,
3;390,391,405;,
3;390,405,404;,
3;391,392,406;,
3;391,406,405;,
3;392,393,407;,
3;392,407,406;,
3;393,394,408;,
3;393,408,407;,
3;394,395,409;,
3;394,409,408;,
3;395,396,410;,
3;395,410,409;,
3;396,397,411;,
3;396,411,410;,
3;397,398,412;,
3;397,412,411;,
3;398,399,413;,
3;398,413,412;,
3;399,31,413;,
3;2,400,414;,
3;400,401,415;,
3;400,415,414;,
3;401,402,416;,
3;401,416,415;,
3;402,403,417;,
3;402,417,416;,
3;403,404,418;,
3;403,418,417;,
3;404,405,419;,
3;404,419,418;,
3;405,406,420;,
3;405,420,419;,
3;406,407,421;,
3;406,421,420;,
3;407,408,422;,
3;407,422,421;,
3;408,409,423;,
3;408,423,422;,
3;409,410,424;,
3;409,424,423;,
3;410,411,425;,
3;410,425,424;,
3;411,412,426;,
3;411,426,425;,
3;412,413,427;,
3;412,427,426;,
3;413,31,427;,
3;2,414,428;,
3;414,415,429;,
3;414,429,428;,
3;415,416,430;,
3;415,430,429;,
3;416,417,431;,
3;416,431,430;,
3;417,418,432;,
3;417,432,431;,
3;418,419,433;,
3;418,433,432;,
3;419,420,434;,
3;419,434,433;,
3;420,421,435;,
3;420,435,434;,
3;421,422,436;,
3;421,436,435;,
3;422,423,437;,
3;422,437,436;,
3;423,424,438;,
3;423,438,437;,
3;424,425,439;,
3;424,439,438;,
3;425,426,440;,
3;425,440,439;,
3;426,427,441;,
3;426,441,440;,
3;427,31,441;,
3;2,428,442;,
3;428,429,443;,
3;428,443,442;,
3;429,430,444;,
3;429,444,443;,
3;430,431,445;,
3;430,445,444;,
3;431,432,446;,
3;431,446,445;,
3;432,433,447;,
3;432,447,446;,
3;433,434,448;,
3;433,448,447;,
3;434,435,449;,
3;434,449,448;,
3;435,436,450;,
3;435,450,449;,
3;436,437,451;,
3;436,451,450;,
3;437,438,452;,
3;437,452,451;,
3;438,439,453;,
3;438,453,452;,
3;439,440,454;,
3;439,454,453;,
3;440,441,455;,
3;440,455,454;,
3;441,31,455;,
3;2,442,1;,
3;442,443,5;,
3;442,5,1;,
3;443,444,7;,
3;443,7,5;,
3;444,445,9;,
3;444,9,7;,
3;445,446,11;,
3;445,11,9;,
3;446,447,13;,
3;446,13,11;,
3;447,448,15;,
3;447,15,13;,
3;448,449,17;,
3;448,17,15;,
3;449,450,19;,
3;449,19,17;,
3;450,451,21;,
3;450,21,19;,
3;451,452,23;,
3;451,23,21;,
3;452,453,25;,
3;452,25,23;,
3;453,454,27;,
3;453,27,25;,
3;454,455,29;,
3;454,29,27;,
3;455,31,29;,
3;31,259,145;,
3;31,145,30;,
3;2,3,131;,
3;2,131,245;;
MeshMaterialList {
 1;
 908;
  0,
  0,
  0,
  0,
  0,
  0,
  0,
  0,
  0,
  0,
  0,
  0,
  0,
  0,
  0,
  0,
  0,
  0,
  0,
  0,
  0,
  0,
  0,
  0,
  0,
  0,
  0,
  0,
  0,
  0,
  0,
  0,
  0,
  0,
  0,
  0,
  0,
  0,
  0,
  0,
  0,
  0,
  0,
  0,
  0,
  0,
  0,
  0,
  0,
  0,
  0,
  0,
  0,
  0,
  0,
  0,
  0,
  0,
  0,
  0,
  0,
  0,
  0,
  0,
  0,
  0,
  0,
  0,
  0,
  0,
  0,
  0,
  0,
  0,
  0,
  0,
  0,
  0,
  0,
  0,
  0,
  0,
  0,
  0,
  0,
  0,
  0,
  0,
  0,
  0,
  0,
  0,
  0,
  0,
  0,
  0,
  0,
  0,
  0,
  0,
  0,
  0,
  0,
  0,
  0,
  0,
  0,
  0,
  0,
  0,
  0,
  0,
  0,
  0,
  0,
  0,
  0,
  0,
  0,
  0,
  0,
  0,
  0,
  0,
  0,
  0,
  0,
  0,
  0,
  0,
  0,
  0,
  0,
  0,
  0,
  0,
  0,
  0,
  0,
  0,
  0,
  0,
  0,
  0,
  0,
  0,
  0,
  0,
  0,
  0,
  0,
  0,
  0,
  0,
  0,
  0,
  0,
  0,
  0,
  0,
  0,
  0,
  0,
  0,
  0,
  0,
  0,
  0,
  0,
  0,
  0,
  0,
  0,
  0,
  0,
  0,
  0,
  0,
  0,
  0,
  0,
  0,
  0,
  0,
  0,
  0,
  0,
  0,
  0,
  0,
  0,
  0,
  0,
  0,
  0,
  0,
  0,
  0,
  0,
  0,
  0,
  0,
  0,
  0,
  0,
  0,
  0,
  0,
  0,
  0,
  0,
  0,
  0,
  0,
  0,
  0,
  0,
  0,
  0,
  0,
  0,
  0,
  0,
  0,
  0,
  0,
  0,
  0,
  0,
  0,
  0,
  0,
  0,
  0,
  0,
  0,
  0,
  0,
  0,
  0,
  0,
  0,
  0,
  0,
  0,
  0,
  0,
  0,
  0,
  0,
  0,
  0,
  0,
  0,
  0,
  0,
  0,
  0,
  0,
  0,
  0,
  0,
  0,
  0,
  0,
  0,
  0,
  0,
  0,
  0,
  0,
  0,
  0,
  0,
  0,
  0,
  0,
  0,
  0,
  0,
  0,
  0,
  0,
  0,
  0,
  0,
  0,
  0,
  0,
  0,
  0,
  0,
  0,
  0,
  0,
  0,
  0,
  0,
  0,
  0,
  0,
  0,
  0,
  0,
  0,
  0,
  0,
  0,
  0,
  0,
  0,
  0,
  0,
  0,
  0,
  0,
  0,
  0,
  0,
  0,
  0,
  0,
  0,
  0,
  0,
  0,
  0,
  0,
  0,
  0,
  0,
  0,
  0,
  0,
  0,
  0,
  0,
  0,
  0,
  0,
  0,
  0,
  0,
  0,
  0,
  0,
  0,
  0,
  0,
  0,
  0,
  0,
  0,
  0,
  0,
  0,
  0,
  0,
  0,
  0,
  0,
  0,
  0,
  0,
  0,
  0,
  0,
  0,
  0,
  0,
  0,
  0,
  0,
  0,
  0,
  0,
  0,
  0,
  0,
  0,
  0,
  0,
  0,
  0,
  0,
  0,
  0,
  0,
  0,
  0,
  0,
  0,
  0,
  0,
  0,
  0,
  0,
  0,
  0,
  0,
  0,
  0,
  0,
  0,
  0,
  0,
  0,
  0,
  0,
  0,
  0,
  0,
  0,
  0,
  0,
  0,
  0,
  0,
  0,
  0,
  0,
  0,
  0,
  0,
  0,
  0,
  0,
  0,
  0,
  0,
  0,
  0,
  0,
  0,
  0,
  0,
  0,
  0,
  0,
  0,
  0,
  0,
  0,
  0,
  0,
  0,
  0,
  0,
  0,
  0,
  0,
  0,
  0,
  0,
  0,
  0,
  0,
  0,
  0,
  0,
  0,
  0,
  0,
  0,
  0,
  0,
  0,
  0,
  0,
  0,
  0,
  0,
  0,
  0,
  0,
  0,
  0,
  0,
  0,
  0,
  0,
  0,
  0,
  0,
  0,
  0,
  0,
  0,
  0,
  0,
  0,
  0,
  0,
  0,
  0,
  0,
  0,
  0,
  0,
  0,
  0,
  0,
  0,
  0,
  0,
  0,
  0,
  0,
  0,
  0,
  0,
  0,
  0,
  0,
  0,
  0,
  0,
  0,
  0,
  0,
  0,
  0,
  0,
  0,
  0,
  0,
  0,
  0,
  0,
  0,
  0,
  0,
  0,
  0,
  0,
  0,
  0,
  0,
  0,
  0,
  0,
  0,
  0,
  0,
  0,
  0,
  0,
  0,
  0,
  0,
  0,
  0,
  0,
  0,
  0,
  0,
  0,
  0,
  0,
  0,
  0,
  0,
  0,
  0,
  0,
  0,
  0,
  0,
  0,
  0,
  0,
  0,
  0,
  0,
  0,
  0,
  0,
  0,
  0,
  0,
  0,
  0,
  0,
  0,
  0,
  0,
  0,
  0,
  0,
  0,
  0,
  0,
  0,
  0,
  0,
  0,
  0,
  0,
  0,
  0,
  0,
  0,
  0,
  0,
  0,
  0,
  0,
  0,
  0,
  0,
  0,
  0,
  0,
  0,
  0,
  0,
  0,
  0,
  0,
  0,
  0,
  0,
  0,
  0,
  0,
  0,
  0,
  0,
  0,
  0,
  0,
  0,
  0,
  0,
  0,
  0,
  0,
  0,
  0,
  0,
  0,
  0,
  0,
  0,
  0,
  0,
  0,
  0,
  0,
  0,
  0,
  0,
  0,
  0,
  0,
  0,
  0,
  0,
  0,
  0,
  0,
  0,
  0,
  0,
  0,
  0,
  0,
  0,
  0,
  0,
  0,
  0,
  0,
  0,
  0,
  0,
  0,
  0,
  0,
  0,
  0,
  0,
  0,
  0,
  0,
  0,
  0,
  0,
  0,
  0,
  0,
  0,
  0,
  0,
  0,
  0,
  0,
  0,
  0,
  0,
  0,
  0,
  0,
  0,
  0,
  0,
  0,
  0,
  0,
  0,
  0,
  0,
  0,
  0,
  0,
  0,
  0,
  0,
  0,
  0,
  0,
  0,
  0,
  0,
  0,
  0,
  0,
  0,
  0,
  0,
  0,
  0,
  0,
  0,
  0,
  0,
  0,
  0,
  0,
  0,
  0,
  0,
  0,
  0,
  0,
  0,
  0,
  0,
  0,
  0,
  0,
  0,
  0,
  0,
  0,
  0,
  0,
  0,
  0,
  0,
  0,
  0,
  0,
  0,
  0,
  0,
  0,
  0,
  0,
  0,
  0,
  0,
  0,
  0,
  0,
  0,
  0,
  0,
  0,
  0,
  0,
  0,
  0,
  0,
  0,
  0,
  0,
  0,
  0,
  0,
  0,
  0,
  0,
  0,
  0,
  0,
  0,
  0,
  0,
  0,
  0,
  0,
  0,
  0,
  0,
  0,
  0,
  0,
  0,
  0,
  0,
  0,
  0,
  0,
  0,
  0,
  0,
  0,
  0,
  0,
  0,
  0,
  0,
  0,
  0,
  0,
  0,
  0,
  0,
  0,
  0,
  0,
  0,
  0,
  0,
  0,
  0,
  0,
  0,
  0,
  0,
  0,
  0,
  0,
  0,
  0,
  0,
  0,
  0,
  0,
  0,
  0,
  0,
  0,
  0,
  0,
  0,
  0,
  0,
  0,
  0,
  0,
  0,
  0,
  0,
  0,
  0,
  0,
  0,
  0,
  0,
  0,
  0,
  0,
  0,
  0,
  0,
  0,
  0,
  0,
  0,
  0,
  0,
  0,
  0,
  0,
  0,
  0,
  0,
  0,
  0,
  0,
  0,
  0,
  0,
  0,
  0,
  0,
  0,
  0,
  0,
  0,
  0,
  0,
  0,
  0,
  0,
  0;;
Material {
 0.500000;0.500000;0.500000;1.000000;;
111.430458;
 1.000000;1.000000;1.000000;;
 0.000000;0.000000;0.000000;;
TextureFilename {
"ORGANIC .psd";
}
 }
}

 MeshNormals {
 456;
0.014592;-0.974830;-0.222473;,
-0.010022;-0.969621;-0.244406;,
-0.051366;-0.996832;-0.060716;,
0.066228;-0.996230;-0.056029;,
0.026319;-0.900680;-0.433684;,
-0.022517;-0.900744;-0.433767;,
0.036702;-0.781358;-0.623003;,
-0.033412;-0.781390;-0.623148;,
0.045224;-0.622938;-0.780963;,
-0.042608;-0.622897;-0.781143;,
0.051470;-0.433422;-0.899720;,
-0.049655;-0.433290;-0.899885;,
0.055143;-0.222307;-0.973416;,
-0.054214;-0.222102;-0.973515;,
0.056042;-0.056042;-0.996854;,
-0.055925;-0.055925;-0.996867;,
0.055925;0.055925;-0.996867;,
-0.056042;0.056042;-0.996854;,
0.054214;0.222102;-0.973515;,
-0.055143;0.222307;-0.973416;,
0.049655;0.433290;-0.899885;,
-0.051470;0.433422;-0.899720;,
0.042608;0.622897;-0.781143;,
-0.045224;0.622938;-0.780963;,
0.033412;0.781390;-0.623148;,
-0.036702;0.781358;-0.623003;,
0.022517;0.900744;-0.433767;,
-0.026319;0.900680;-0.433684;,
0.010022;0.969621;-0.244406;,
-0.014592;0.974830;-0.222473;,
0.056029;0.996230;-0.066228;,
-0.060716;0.996832;-0.051366;,
0.061680;-0.969648;-0.236596;,
0.100243;-0.900989;-0.422101;,
0.141936;-0.781875;-0.607063;,
0.176516;-0.623548;-0.761597;,
0.202250;-0.433939;-0.877947;,
0.217847;-0.222554;-0.950270;,
0.222284;-0.056073;-0.973368;,
0.222057;0.056072;-0.973420;,
0.216033;0.222554;-0.950684;,
0.198706;0.433939;-0.878757;,
0.171410;0.623548;-0.762762;,
0.135516;0.781875;-0.608528;,
0.092827;0.900989;-0.423794;,
0.047084;0.969648;-0.239928;,
0.112781;-0.969648;-0.216939;,
0.191656;-0.900989;-0.389212;,
0.273461;-0.781875;-0.560259;,
0.341561;-0.623548;-0.703224;,
0.392541;-0.433939;-0.810931;,
0.423841;-0.222554;-0.877968;,
0.433306;-0.056073;-0.899501;,
0.433096;0.056073;-0.899602;,
0.422164;0.222554;-0.878776;,
0.389266;0.433939;-0.812508;,
0.336843;0.623548;-0.705496;,
0.267528;0.781875;-0.563116;,
0.184802;0.900989;-0.392513;,
0.099292;0.969648;-0.223435;,
0.158227;-0.969648;-0.186404;,
0.273459;-0.900989;-0.336806;,
0.391274;-0.781875;-0.485361;,
0.489479;-0.623548;-0.609589;,
0.563148;-0.433938;-0.703251;,
0.608580;-0.222554;-0.761643;,
0.622601;-0.056073;-0.780528;,
0.622418;0.056073;-0.780674;,
0.607125;0.222554;-0.762803;,
0.560306;0.433938;-0.705517;,
0.485385;0.623548;-0.612854;,
0.386126;0.781875;-0.489467;,
0.267512;0.900989;-0.341549;,
0.146522;0.969648;-0.195739;,
0.195739;-0.969648;-0.146522;,
0.341549;-0.900989;-0.267512;,
0.489467;-0.781875;-0.386126;,
0.612854;-0.623548;-0.485385;,
0.705517;-0.433938;-0.560306;,
0.762803;-0.222554;-0.607125;,
0.780674;-0.056073;-0.622418;,
0.780529;0.056073;-0.622600;,
0.761643;0.222554;-0.608580;,
0.703251;0.433938;-0.563148;,
0.609589;0.623548;-0.489479;,
0.485361;0.781875;-0.391274;,
0.336806;0.900989;-0.273459;,
0.186404;0.969648;-0.158227;,
0.223435;-0.969648;-0.099292;,
0.392513;-0.900989;-0.184802;,
0.563116;-0.781875;-0.267528;,
0.705496;-0.623548;-0.336843;,
0.812508;-0.433939;-0.389266;,
0.878776;-0.222554;-0.422164;,
0.899602;-0.056073;-0.433096;,
0.899501;0.056073;-0.433307;,
0.877968;0.222554;-0.423841;,
0.810931;0.433939;-0.392541;,
0.703224;0.623547;-0.341561;,
0.560259;0.781875;-0.273461;,
0.389212;0.900989;-0.191656;,
0.216939;0.969648;-0.112781;,
0.239928;-0.969648;-0.047084;,
0.423794;-0.900989;-0.092827;,
0.608528;-0.781875;-0.135516;,
0.762763;-0.623548;-0.171410;,
0.878757;-0.433939;-0.198706;,
0.950684;-0.222554;-0.216033;,
0.973420;-0.056073;-0.222057;,
0.973368;0.056073;-0.222284;,
0.950270;0.222554;-0.217847;,
0.877948;0.433939;-0.202250;,
0.761597;0.623548;-0.176516;,
0.607063;0.781875;-0.141936;,
0.422101;0.900989;-0.100243;,
0.236596;0.969648;-0.061680;,
0.244406;-0.969621;-0.010022;,
0.433767;-0.900744;-0.022517;,
0.623148;-0.781390;-0.033412;,
0.781143;-0.622897;-0.042608;,
0.899885;-0.433290;-0.049655;,
0.973515;-0.222102;-0.054214;,
0.996867;-0.055925;-0.055925;,
0.996854;0.056042;-0.056042;,
0.973416;0.222307;-0.055143;,
0.899720;0.433422;-0.051470;,
0.780963;0.622938;-0.045224;,
0.623003;0.781358;-0.036702;,
0.433684;0.900680;-0.026319;,
0.222473;0.974830;-0.014592;,
0.222473;-0.974830;0.014592;,
0.051366;-0.996832;0.060716;,
0.433684;-0.900680;0.026319;,
0.623003;-0.781358;0.036702;,
0.780963;-0.622938;0.045224;,
0.899720;-0.433422;0.051470;,
0.973416;-0.222307;0.055143;,
0.996854;-0.056042;0.056042;,
0.996867;0.055925;0.055925;,
0.973515;0.222102;0.054214;,
0.899885;0.433290;0.049655;,
0.781143;0.622897;0.042608;,
0.623148;0.781390;0.033412;,
0.433767;0.900744;0.022517;,
0.244406;0.969621;0.010022;,
0.060716;0.996832;0.051366;,
0.236596;-0.969648;0.061680;,
0.422101;-0.900989;0.100244;,
0.607063;-0.781875;0.141936;,
0.761597;-0.623548;0.176516;,
0.877948;-0.433939;0.202250;,
0.950270;-0.222554;0.217847;,
0.973368;-0.056073;0.222285;,
0.973420;0.056072;0.222057;,
0.950684;0.222554;0.216033;,
0.878757;0.433939;0.198706;,
0.762762;0.623548;0.171410;,
0.608528;0.781875;0.135516;,
0.423794;0.900989;0.092827;,
0.239928;0.969648;0.047084;,
0.216939;-0.969648;0.112781;,
0.389212;-0.900989;0.191656;,
0.560259;-0.781875;0.273461;,
0.703224;-0.623548;0.341561;,
0.810931;-0.433939;0.392541;,
0.877969;-0.222554;0.423841;,
0.899501;-0.056073;0.433306;,
0.899602;0.056073;0.433096;,
0.878776;0.222554;0.422164;,
0.812508;0.433939;0.389266;,
0.705496;0.623548;0.336843;,
0.563116;0.781875;0.267528;,
0.392513;0.900989;0.184802;,
0.223435;0.969648;0.099292;,
0.186404;-0.969648;0.158227;,
0.336806;-0.900989;0.273459;,
0.485361;-0.781875;0.391274;,
0.609589;-0.623548;0.489479;,
0.703251;-0.433938;0.563148;,
0.761643;-0.222554;0.608580;,
0.780528;-0.056073;0.622601;,
0.780674;0.056073;0.622418;,
0.762803;0.222554;0.607125;,
0.705517;0.433938;0.560307;,
0.612854;0.623548;0.485385;,
0.489467;0.781875;0.386125;,
0.341549;0.900989;0.267512;,
0.195739;0.969648;0.146522;,
0.146522;-0.969648;0.195739;,
0.267512;-0.900989;0.341549;,
0.386125;-0.781875;0.489467;,
0.485385;-0.623548;0.612854;,
0.560306;-0.433938;0.705517;,
0.607125;-0.222554;0.762803;,
0.622418;-0.056073;0.780674;,
0.622600;0.056073;0.780529;,
0.608580;0.222554;0.761643;,
0.563148;0.433938;0.703251;,
0.489479;0.623548;0.609589;,
0.391274;0.781875;0.485361;,
0.273459;0.900989;0.336806;,
0.158227;0.969648;0.186404;,
0.099292;-0.969648;0.223435;,
0.184802;-0.900989;0.392513;,
0.267528;-0.781875;0.563116;,
0.336843;-0.623548;0.705496;,
0.389266;-0.433939;0.812508;,
0.422164;-0.222554;0.878776;,
0.433096;-0.056073;0.899602;,
0.433307;0.056073;0.899501;,
0.423841;0.222554;0.877969;,
0.392541;0.433939;0.810931;,
0.341561;0.623548;0.703224;,
0.273461;0.781875;0.560259;,
0.191656;0.900989;0.389212;,
0.112781;0.969648;0.216939;,
0.047084;-0.969648;0.239928;,
0.092827;-0.900989;0.423794;,
0.135516;-0.781875;0.608528;,
0.171410;-0.623548;0.762762;,
0.198706;-0.433939;0.878757;,
0.216033;-0.222554;0.950684;,
0.222057;-0.056072;0.973420;,
0.222285;0.056073;0.973368;,
0.217847;0.222554;0.950270;,
0.202250;0.433939;0.877948;,
0.176516;0.623548;0.761597;,
0.141936;0.781875;0.607063;,
0.100244;0.900989;0.422101;,
0.061680;0.969648;0.236596;,
0.010022;-0.969621;0.244406;,
0.022517;-0.900744;0.433767;,
0.033412;-0.781390;0.623148;,
0.042608;-0.622897;0.781143;,
0.049655;-0.433290;0.899885;,
0.054214;-0.222102;0.973515;,
0.055925;-0.055925;0.996867;,
0.056042;0.056042;0.996854;,
0.055143;0.222307;0.973416;,
0.051470;0.433422;0.899720;,
0.045224;0.622938;0.780963;,
0.036702;0.781358;0.623003;,
0.026319;0.900680;0.433684;,
0.014592;0.974830;0.222473;,
-0.014592;-0.974830;0.222473;,
-0.066228;-0.996230;0.056029;,
-0.026319;-0.900680;0.433684;,
-0.036702;-0.781358;0.623003;,
-0.045224;-0.622938;0.780963;,
-0.051470;-0.433422;0.899720;,
-0.055143;-0.222307;0.973416;,
-0.056042;-0.056042;0.996854;,
-0.055925;0.055925;0.996867;,
-0.054214;0.222102;0.973515;,
-0.049655;0.433290;0.899885;,
-0.042608;0.622897;0.781143;,
-0.033412;0.781390;0.623148;,
-0.022517;0.900744;0.433767;,
-0.010022;0.969621;0.244406;,
-0.056029;0.996230;0.066228;,
-0.061680;-0.969648;0.236596;,
-0.100244;-0.900989;0.422101;,
-0.141936;-0.781875;0.607063;,
-0.176515;-0.623548;0.761597;,
-0.202250;-0.433939;0.877948;,
-0.217847;-0.222554;0.950270;,
-0.222285;-0.056073;0.973368;,
-0.222057;0.056072;0.973420;,
-0.216033;0.222554;0.950684;,
-0.198706;0.433939;0.878757;,
-0.171410;0.623548;0.762762;,
-0.135516;0.781875;0.608528;,
-0.092827;0.900989;0.423794;,
-0.047084;0.969648;0.239928;,
-0.112781;-0.969648;0.216939;,
-0.191656;-0.900989;0.389212;,
-0.273461;-0.781875;0.560259;,
-0.341561;-0.623548;0.703224;,
-0.392541;-0.433938;0.810931;,
-0.423841;-0.222554;0.877969;,
-0.433306;-0.056073;0.899501;,
-0.433096;0.056073;0.899602;,
-0.422164;0.222554;0.878776;,
-0.389266;0.433938;0.812508;,
-0.336843;0.623548;0.705496;,
-0.267528;0.781875;0.563116;,
-0.184803;0.900989;0.392513;,
-0.099292;0.969648;0.223435;,
-0.158227;-0.969648;0.186404;,
-0.273459;-0.900989;0.336806;,
-0.391274;-0.781875;0.485361;,
-0.489479;-0.623548;0.609588;,
-0.563148;-0.433938;0.703251;,
-0.608580;-0.222554;0.761643;,
-0.622600;-0.056073;0.780529;,
-0.622417;0.056073;0.780674;,
-0.607125;0.222554;0.762803;,
-0.560306;0.433938;0.705517;,
-0.485385;0.623548;0.612853;,
-0.386126;0.781875;0.489467;,
-0.267511;0.900989;0.341549;,
-0.146522;0.969648;0.195739;,
-0.195739;-0.969648;0.146522;,
-0.341549;-0.900989;0.267511;,
-0.489467;-0.781875;0.386126;,
-0.612853;-0.623548;0.485385;,
-0.705517;-0.433939;0.560306;,
-0.762803;-0.222554;0.607126;,
-0.780674;-0.056073;0.622418;,
-0.780528;0.056073;0.622600;,
-0.761643;0.222554;0.608580;,
-0.703251;0.433938;0.563148;,
-0.609588;0.623548;0.489480;,
-0.485361;0.781875;0.391274;,
-0.336806;0.900989;0.273459;,
-0.186404;0.969648;0.158227;,
-0.223435;-0.969648;0.099292;,
-0.392513;-0.900989;0.184803;,
-0.563116;-0.781875;0.267528;,
-0.705496;-0.623548;0.336843;,
-0.812508;-0.433939;0.389266;,
-0.878776;-0.222554;0.422163;,
-0.899602;-0.056073;0.433096;,
-0.899501;0.056073;0.433306;,
-0.877968;0.222554;0.423841;,
-0.810931;0.433939;0.392541;,
-0.703224;0.623548;0.341561;,
-0.560259;0.781875;0.273461;,
-0.389212;0.900989;0.191657;,
-0.216939;0.969648;0.112781;,
-0.239928;-0.969648;0.047084;,
-0.423794;-0.900989;0.092827;,
-0.608528;-0.781875;0.135516;,
-0.762762;-0.623548;0.171410;,
-0.878757;-0.433939;0.198706;,
-0.950684;-0.222554;0.216033;,
-0.973420;-0.056072;0.222057;,
-0.973368;0.056073;0.222284;,
-0.950270;0.222554;0.217847;,
-0.877948;0.433939;0.202250;,
-0.761597;0.623548;0.176516;,
-0.607063;0.781875;0.141936;,
-0.422101;0.900989;0.100244;,
-0.236596;0.969648;0.061680;,
-0.244406;-0.969621;0.010022;,
-0.433767;-0.900744;0.022517;,
-0.623148;-0.781390;0.033412;,
-0.781143;-0.622897;0.042608;,
-0.899885;-0.433290;0.049655;,
-0.973515;-0.222102;0.054214;,
-0.996867;-0.055925;0.055925;,
-0.996854;0.056042;0.056042;,
-0.973416;0.222307;0.055143;,
-0.899720;0.433422;0.051470;,
-0.780963;0.622938;0.045224;,
-0.623003;0.781358;0.036702;,
-0.433684;0.900680;0.026319;,
-0.222473;0.974830;0.014592;,
-0.222473;-0.974830;-0.014592;,
-0.433684;-0.900680;-0.026319;,
-0.623003;-0.781358;-0.036702;,
-0.780963;-0.622938;-0.045224;,
-0.899720;-0.433422;-0.051470;,
-0.973416;-0.222307;-0.055143;,
-0.996854;-0.056042;-0.056042;,
-0.996867;0.055925;-0.055925;,
-0.973515;0.222102;-0.054214;,
-0.899885;0.433290;-0.049655;,
-0.781143;0.622897;-0.042608;,
-0.623148;0.781390;-0.033412;,
-0.433767;0.900744;-0.022517;,
-0.244406;0.969621;-0.010022;,
-0.236596;-0.969648;-0.061680;,
-0.422101;-0.900989;-0.100244;,
-0.607063;-0.781875;-0.141936;,
-0.761597;-0.623548;-0.176516;,
-0.877947;-0.433939;-0.202250;,
-0.950270;-0.222554;-0.217847;,
-0.973368;-0.056073;-0.222284;,
-0.973420;0.056073;-0.222057;,
-0.950684;0.222554;-0.216033;,
-0.878757;0.433939;-0.198706;,
-0.762762;0.623548;-0.171410;,
-0.608528;0.781875;-0.135516;,
-0.423794;0.900989;-0.092827;,
-0.239928;0.969648;-0.047084;,
-0.216939;-0.969648;-0.112781;,
-0.389212;-0.900989;-0.191657;,
-0.560259;-0.781875;-0.273461;,
-0.703224;-0.623548;-0.341561;,
-0.810931;-0.433939;-0.392541;,
-0.877968;-0.222554;-0.423841;,
-0.899501;-0.056073;-0.433306;,
-0.899602;0.056073;-0.433096;,
-0.878776;0.222554;-0.422163;,
-0.812508;0.433939;-0.389266;,
-0.705496;0.623548;-0.336843;,
-0.563116;0.781875;-0.267528;,
-0.392513;0.900989;-0.184803;,
-0.223435;0.969648;-0.099292;,
-0.186404;-0.969648;-0.158227;,
-0.336806;-0.900989;-0.273459;,
-0.485361;-0.781875;-0.391274;,
-0.609588;-0.623548;-0.489479;,
-0.703250;-0.433938;-0.563148;,
-0.761643;-0.222554;-0.608580;,
-0.780528;-0.056073;-0.622600;,
-0.780674;0.056073;-0.622418;,
-0.762803;0.222554;-0.607126;,
-0.705517;0.433939;-0.560306;,
-0.612853;0.623548;-0.485385;,
-0.489467;0.781875;-0.386126;,
-0.341549;0.900989;-0.267512;,
-0.195739;0.969648;-0.146522;,
-0.146522;-0.969648;-0.195739;,
-0.267512;-0.900989;-0.341549;,
-0.386126;-0.781875;-0.489467;,
-0.485385;-0.623548;-0.612854;,
-0.560306;-0.433938;-0.705517;,
-0.607125;-0.222554;-0.762803;,
-0.622418;-0.056073;-0.780674;,
-0.622600;0.056073;-0.780528;,
-0.608580;0.222554;-0.761643;,
-0.563148;0.433938;-0.703251;,
-0.489479;0.623548;-0.609589;,
-0.391274;0.781875;-0.485361;,
-0.273459;0.900989;-0.336806;,
-0.158227;0.969648;-0.186404;,
-0.099292;-0.969648;-0.223435;,
-0.184802;-0.900989;-0.392513;,
-0.267528;-0.781875;-0.563116;,
-0.336843;-0.623548;-0.705496;,
-0.389266;-0.433939;-0.812508;,
-0.422164;-0.222554;-0.878776;,
-0.433096;-0.056073;-0.899602;,
-0.433306;0.056073;-0.899501;,
-0.423841;0.222554;-0.877968;,
-0.392541;0.433939;-0.810931;,
-0.341561;0.623548;-0.703224;,
-0.273461;0.781875;-0.560259;,
-0.191656;0.900989;-0.389212;,
-0.112781;0.969648;-0.216939;,
-0.047084;-0.969648;-0.239928;,
-0.092827;-0.900989;-0.423794;,
-0.135516;-0.781875;-0.608528;,
-0.171410;-0.623548;-0.762763;,
-0.198706;-0.433939;-0.878757;,
-0.216033;-0.222554;-0.950684;,
-0.222057;-0.056073;-0.973420;,
-0.222284;0.056073;-0.973368;,
-0.217847;0.222554;-0.950270;,
-0.202250;0.433939;-0.877948;,
-0.176516;0.623548;-0.761597;,
-0.141936;0.781875;-0.607063;,
-0.100243;0.900989;-0.422101;,
-0.061680;0.969648;-0.236596;;

 908;
3;2,1,0;,
3;2,0,3;,
3;1,5,4;,
3;1,4,0;,
3;5,7,6;,
3;5,6,4;,
3;7,9,8;,
3;7,8,6;,
3;9,11,10;,
3;9,10,8;,
3;11,13,12;,
3;11,12,10;,
3;13,15,14;,
3;13,14,12;,
3;15,17,16;,
3;15,16,14;,
3;17,19,18;,
3;17,18,16;,
3;19,21,20;,
3;19,20,18;,
3;21,23,22;,
3;21,22,20;,
3;23,25,24;,
3;23,24,22;,
3;25,27,26;,
3;25,26,24;,
3;27,29,28;,
3;27,28,26;,
3;29,31,30;,
3;29,30,28;,
3;3,0,32;,
3;0,4,33;,
3;0,33,32;,
3;4,6,34;,
3;4,34,33;,
3;6,8,35;,
3;6,35,34;,
3;8,10,36;,
3;8,36,35;,
3;10,12,37;,
3;10,37,36;,
3;12,14,38;,
3;12,38,37;,
3;14,16,39;,
3;14,39,38;,
3;16,18,40;,
3;16,40,39;,
3;18,20,41;,
3;18,41,40;,
3;20,22,42;,
3;20,42,41;,
3;22,24,43;,
3;22,43,42;,
3;24,26,44;,
3;24,44,43;,
3;26,28,45;,
3;26,45,44;,
3;28,30,45;,
3;3,32,46;,
3;32,33,47;,
3;32,47,46;,
3;33,34,48;,
3;33,48,47;,
3;34,35,49;,
3;34,49,48;,
3;35,36,50;,
3;35,50,49;,
3;36,37,51;,
3;36,51,50;,
3;37,38,52;,
3;37,52,51;,
3;38,39,53;,
3;38,53,52;,
3;39,40,54;,
3;39,54,53;,
3;40,41,55;,
3;40,55,54;,
3;41,42,56;,
3;41,56,55;,
3;42,43,57;,
3;42,57,56;,
3;43,44,58;,
3;43,58,57;,
3;44,45,59;,
3;44,59,58;,
3;45,30,59;,
3;3,46,60;,
3;46,47,61;,
3;46,61,60;,
3;47,48,62;,
3;47,62,61;,
3;48,49,63;,
3;48,63,62;,
3;49,50,64;,
3;49,64,63;,
3;50,51,65;,
3;50,65,64;,
3;51,52,66;,
3;51,66,65;,
3;52,53,67;,
3;52,67,66;,
3;53,54,68;,
3;53,68,67;,
3;54,55,69;,
3;54,69,68;,
3;55,56,70;,
3;55,70,69;,
3;56,57,71;,
3;56,71,70;,
3;57,58,72;,
3;57,72,71;,
3;58,59,73;,
3;58,73,72;,
3;59,30,73;,
3;3,60,74;,
3;60,61,75;,
3;60,75,74;,
3;61,62,76;,
3;61,76,75;,
3;62,63,77;,
3;62,77,76;,
3;63,64,78;,
3;63,78,77;,
3;64,65,79;,
3;64,79,78;,
3;65,66,80;,
3;65,80,79;,
3;66,67,81;,
3;66,81,80;,
3;67,68,82;,
3;67,82,81;,
3;68,69,83;,
3;68,83,82;,
3;69,70,84;,
3;69,84,83;,
3;70,71,85;,
3;70,85,84;,
3;71,72,86;,
3;71,86,85;,
3;72,73,87;,
3;72,87,86;,
3;73,30,87;,
3;3,74,88;,
3;74,75,89;,
3;74,89,88;,
3;75,76,90;,
3;75,90,89;,
3;76,77,91;,
3;76,91,90;,
3;77,78,92;,
3;77,92,91;,
3;78,79,93;,
3;78,93,92;,
3;79,80,94;,
3;79,94,93;,
3;80,81,95;,
3;80,95,94;,
3;81,82,96;,
3;81,96,95;,
3;82,83,97;,
3;82,97,96;,
3;83,84,98;,
3;83,98,97;,
3;84,85,99;,
3;84,99,98;,
3;85,86,100;,
3;85,100,99;,
3;86,87,101;,
3;86,101,100;,
3;87,30,101;,
3;3,88,102;,
3;88,89,103;,
3;88,103,102;,
3;89,90,104;,
3;89,104,103;,
3;90,91,105;,
3;90,105,104;,
3;91,92,106;,
3;91,106,105;,
3;92,93,107;,
3;92,107,106;,
3;93,94,108;,
3;93,108,107;,
3;94,95,109;,
3;94,109,108;,
3;95,96,110;,
3;95,110,109;,
3;96,97,111;,
3;96,111,110;,
3;97,98,112;,
3;97,112,111;,
3;98,99,113;,
3;98,113,112;,
3;99,100,114;,
3;99,114,113;,
3;100,101,115;,
3;100,115,114;,
3;101,30,115;,
3;3,102,116;,
3;102,103,117;,
3;102,117,116;,
3;103,104,118;,
3;103,118,117;,
3;104,105,119;,
3;104,119,118;,
3;105,106,120;,
3;105,120,119;,
3;106,107,121;,
3;106,121,120;,
3;107,108,122;,
3;107,122,121;,
3;108,109,123;,
3;108,123,122;,
3;109,110,124;,
3;109,124,123;,
3;110,111,125;,
3;110,125,124;,
3;111,112,126;,
3;111,126,125;,
3;112,113,127;,
3;112,127,126;,
3;113,114,128;,
3;113,128,127;,
3;114,115,129;,
3;114,129,128;,
3;115,30,129;,
3;3,116,130;,
3;3,130,131;,
3;116,117,132;,
3;116,132,130;,
3;117,118,133;,
3;117,133,132;,
3;118,119,134;,
3;118,134,133;,
3;119,120,135;,
3;119,135,134;,
3;120,121,136;,
3;120,136,135;,
3;121,122,137;,
3;121,137,136;,
3;122,123,138;,
3;122,138,137;,
3;123,124,139;,
3;123,139,138;,
3;124,125,140;,
3;124,140,139;,
3;125,126,141;,
3;125,141,140;,
3;126,127,142;,
3;126,142,141;,
3;127,128,143;,
3;127,143,142;,
3;128,129,144;,
3;128,144,143;,
3;129,30,145;,
3;129,145,144;,
3;131,130,146;,
3;130,132,147;,
3;130,147,146;,
3;132,133,148;,
3;132,148,147;,
3;133,134,149;,
3;133,149,148;,
3;134,135,150;,
3;134,150,149;,
3;135,136,151;,
3;135,151,150;,
3;136,137,152;,
3;136,152,151;,
3;137,138,153;,
3;137,153,152;,
3;138,139,154;,
3;138,154,153;,
3;139,140,155;,
3;139,155,154;,
3;140,141,156;,
3;140,156,155;,
3;141,142,157;,
3;141,157,156;,
3;142,143,158;,
3;142,158,157;,
3;143,144,159;,
3;143,159,158;,
3;144,145,159;,
3;131,146,160;,
3;146,147,161;,
3;146,161,160;,
3;147,148,162;,
3;147,162,161;,
3;148,149,163;,
3;148,163,162;,
3;149,150,164;,
3;149,164,163;,
3;150,151,165;,
3;150,165,164;,
3;151,152,166;,
3;151,166,165;,
3;152,153,167;,
3;152,167,166;,
3;153,154,168;,
3;153,168,167;,
3;154,155,169;,
3;154,169,168;,
3;155,156,170;,
3;155,170,169;,
3;156,157,171;,
3;156,171,170;,
3;157,158,172;,
3;157,172,171;,
3;158,159,173;,
3;158,173,172;,
3;159,145,173;,
3;131,160,174;,
3;160,161,175;,
3;160,175,174;,
3;161,162,176;,
3;161,176,175;,
3;162,163,177;,
3;162,177,176;,
3;163,164,178;,
3;163,178,177;,
3;164,165,179;,
3;164,179,178;,
3;165,166,180;,
3;165,180,179;,
3;166,167,181;,
3;166,181,180;,
3;167,168,182;,
3;167,182,181;,
3;168,169,183;,
3;168,183,182;,
3;169,170,184;,
3;169,184,183;,
3;170,171,185;,
3;170,185,184;,
3;171,172,186;,
3;171,186,185;,
3;172,173,187;,
3;172,187,186;,
3;173,145,187;,
3;131,174,188;,
3;174,175,189;,
3;174,189,188;,
3;175,176,190;,
3;175,190,189;,
3;176,177,191;,
3;176,191,190;,
3;177,178,192;,
3;177,192,191;,
3;178,179,193;,
3;178,193,192;,
3;179,180,194;,
3;179,194,193;,
3;180,181,195;,
3;180,195,194;,
3;181,182,196;,
3;181,196,195;,
3;182,183,197;,
3;182,197,196;,
3;183,184,198;,
3;183,198,197;,
3;184,185,199;,
3;184,199,198;,
3;185,186,200;,
3;185,200,199;,
3;186,187,201;,
3;186,201,200;,
3;187,145,201;,
3;131,188,202;,
3;188,189,203;,
3;188,203,202;,
3;189,190,204;,
3;189,204,203;,
3;190,191,205;,
3;190,205,204;,
3;191,192,206;,
3;191,206,205;,
3;192,193,207;,
3;192,207,206;,
3;193,194,208;,
3;193,208,207;,
3;194,195,209;,
3;194,209,208;,
3;195,196,210;,
3;195,210,209;,
3;196,197,211;,
3;196,211,210;,
3;197,198,212;,
3;197,212,211;,
3;198,199,213;,
3;198,213,212;,
3;199,200,214;,
3;199,214,213;,
3;200,201,215;,
3;200,215,214;,
3;201,145,215;,
3;131,202,216;,
3;202,203,217;,
3;202,217,216;,
3;203,204,218;,
3;203,218,217;,
3;204,205,219;,
3;204,219,218;,
3;205,206,220;,
3;205,220,219;,
3;206,207,221;,
3;206,221,220;,
3;207,208,222;,
3;207,222,221;,
3;208,209,223;,
3;208,223,222;,
3;209,210,224;,
3;209,224,223;,
3;210,211,225;,
3;210,225,224;,
3;211,212,226;,
3;211,226,225;,
3;212,213,227;,
3;212,227,226;,
3;213,214,228;,
3;213,228,227;,
3;214,215,229;,
3;214,229,228;,
3;215,145,229;,
3;131,216,230;,
3;216,217,231;,
3;216,231,230;,
3;217,218,232;,
3;217,232,231;,
3;218,219,233;,
3;218,233,232;,
3;219,220,234;,
3;219,234,233;,
3;220,221,235;,
3;220,235,234;,
3;221,222,236;,
3;221,236,235;,
3;222,223,237;,
3;222,237,236;,
3;223,224,238;,
3;223,238,237;,
3;224,225,239;,
3;224,239,238;,
3;225,226,240;,
3;225,240,239;,
3;226,227,241;,
3;226,241,240;,
3;227,228,242;,
3;227,242,241;,
3;228,229,243;,
3;228,243,242;,
3;229,145,243;,
3;131,230,244;,
3;131,244,245;,
3;230,231,246;,
3;230,246,244;,
3;231,232,247;,
3;231,247,246;,
3;232,233,248;,
3;232,248,247;,
3;233,234,249;,
3;233,249,248;,
3;234,235,250;,
3;234,250,249;,
3;235,236,251;,
3;235,251,250;,
3;236,237,252;,
3;236,252,251;,
3;237,238,253;,
3;237,253,252;,
3;238,239,254;,
3;238,254,253;,
3;239,240,255;,
3;239,255,254;,
3;240,241,256;,
3;240,256,255;,
3;241,242,257;,
3;241,257,256;,
3;242,243,258;,
3;242,258,257;,
3;243,145,259;,
3;243,259,258;,
3;245,244,260;,
3;244,246,261;,
3;244,261,260;,
3;246,247,262;,
3;246,262,261;,
3;247,248,263;,
3;247,263,262;,
3;248,249,264;,
3;248,264,263;,
3;249,250,265;,
3;249,265,264;,
3;250,251,266;,
3;250,266,265;,
3;251,252,267;,
3;251,267,266;,
3;252,253,268;,
3;252,268,267;,
3;253,254,269;,
3;253,269,268;,
3;254,255,270;,
3;254,270,269;,
3;255,256,271;,
3;255,271,270;,
3;256,257,272;,
3;256,272,271;,
3;257,258,273;,
3;257,273,272;,
3;258,259,273;,
3;245,260,274;,
3;260,261,275;,
3;260,275,274;,
3;261,262,276;,
3;261,276,275;,
3;262,263,277;,
3;262,277,276;,
3;263,264,278;,
3;263,278,277;,
3;264,265,279;,
3;264,279,278;,
3;265,266,280;,
3;265,280,279;,
3;266,267,281;,
3;266,281,280;,
3;267,268,282;,
3;267,282,281;,
3;268,269,283;,
3;268,283,282;,
3;269,270,284;,
3;269,284,283;,
3;270,271,285;,
3;270,285,284;,
3;271,272,286;,
3;271,286,285;,
3;272,273,287;,
3;272,287,286;,
3;273,259,287;,
3;245,274,288;,
3;274,275,289;,
3;274,289,288;,
3;275,276,290;,
3;275,290,289;,
3;276,277,291;,
3;276,291,290;,
3;277,278,292;,
3;277,292,291;,
3;278,279,293;,
3;278,293,292;,
3;279,280,294;,
3;279,294,293;,
3;280,281,295;,
3;280,295,294;,
3;281,282,296;,
3;281,296,295;,
3;282,283,297;,
3;282,297,296;,
3;283,284,298;,
3;283,298,297;,
3;284,285,299;,
3;284,299,298;,
3;285,286,300;,
3;285,300,299;,
3;286,287,301;,
3;286,301,300;,
3;287,259,301;,
3;245,288,302;,
3;288,289,303;,
3;288,303,302;,
3;289,290,304;,
3;289,304,303;,
3;290,291,305;,
3;290,305,304;,
3;291,292,306;,
3;291,306,305;,
3;292,293,307;,
3;292,307,306;,
3;293,294,308;,
3;293,308,307;,
3;294,295,309;,
3;294,309,308;,
3;295,296,310;,
3;295,310,309;,
3;296,297,311;,
3;296,311,310;,
3;297,298,312;,
3;297,312,311;,
3;298,299,313;,
3;298,313,312;,
3;299,300,314;,
3;299,314,313;,
3;300,301,315;,
3;300,315,314;,
3;301,259,315;,
3;245,302,316;,
3;302,303,317;,
3;302,317,316;,
3;303,304,318;,
3;303,318,317;,
3;304,305,319;,
3;304,319,318;,
3;305,306,320;,
3;305,320,319;,
3;306,307,321;,
3;306,321,320;,
3;307,308,322;,
3;307,322,321;,
3;308,309,323;,
3;308,323,322;,
3;309,310,324;,
3;309,324,323;,
3;310,311,325;,
3;310,325,324;,
3;311,312,326;,
3;311,326,325;,
3;312,313,327;,
3;312,327,326;,
3;313,314,328;,
3;313,328,327;,
3;314,315,329;,
3;314,329,328;,
3;315,259,329;,
3;245,316,330;,
3;316,317,331;,
3;316,331,330;,
3;317,318,332;,
3;317,332,331;,
3;318,319,333;,
3;318,333,332;,
3;319,320,334;,
3;319,334,333;,
3;320,321,335;,
3;320,335,334;,
3;321,322,336;,
3;321,336,335;,
3;322,323,337;,
3;322,337,336;,
3;323,324,338;,
3;323,338,337;,
3;324,325,339;,
3;324,339,338;,
3;325,326,340;,
3;325,340,339;,
3;326,327,341;,
3;326,341,340;,
3;327,328,342;,
3;327,342,341;,
3;328,329,343;,
3;328,343,342;,
3;329,259,343;,
3;245,330,344;,
3;330,331,345;,
3;330,345,344;,
3;331,332,346;,
3;331,346,345;,
3;332,333,347;,
3;332,347,346;,
3;333,334,348;,
3;333,348,347;,
3;334,335,349;,
3;334,349,348;,
3;335,336,350;,
3;335,350,349;,
3;336,337,351;,
3;336,351,350;,
3;337,338,352;,
3;337,352,351;,
3;338,339,353;,
3;338,353,352;,
3;339,340,354;,
3;339,354,353;,
3;340,341,355;,
3;340,355,354;,
3;341,342,356;,
3;341,356,355;,
3;342,343,357;,
3;342,357,356;,
3;343,259,357;,
3;245,344,358;,
3;245,358,2;,
3;344,345,359;,
3;344,359,358;,
3;345,346,360;,
3;345,360,359;,
3;346,347,361;,
3;346,361,360;,
3;347,348,362;,
3;347,362,361;,
3;348,349,363;,
3;348,363,362;,
3;349,350,364;,
3;349,364,363;,
3;350,351,365;,
3;350,365,364;,
3;351,352,366;,
3;351,366,365;,
3;352,353,367;,
3;352,367,366;,
3;353,354,368;,
3;353,368,367;,
3;354,355,369;,
3;354,369,368;,
3;355,356,370;,
3;355,370,369;,
3;356,357,371;,
3;356,371,370;,
3;357,259,31;,
3;357,31,371;,
3;2,358,372;,
3;358,359,373;,
3;358,373,372;,
3;359,360,374;,
3;359,374,373;,
3;360,361,375;,
3;360,375,374;,
3;361,362,376;,
3;361,376,375;,
3;362,363,377;,
3;362,377,376;,
3;363,364,378;,
3;363,378,377;,
3;364,365,379;,
3;364,379,378;,
3;365,366,380;,
3;365,380,379;,
3;366,367,381;,
3;366,381,380;,
3;367,368,382;,
3;367,382,381;,
3;368,369,383;,
3;368,383,382;,
3;369,370,384;,
3;369,384,383;,
3;370,371,385;,
3;370,385,384;,
3;371,31,385;,
3;2,372,386;,
3;372,373,387;,
3;372,387,386;,
3;373,374,388;,
3;373,388,387;,
3;374,375,389;,
3;374,389,388;,
3;375,376,390;,
3;375,390,389;,
3;376,377,391;,
3;376,391,390;,
3;377,378,392;,
3;377,392,391;,
3;378,379,393;,
3;378,393,392;,
3;379,380,394;,
3;379,394,393;,
3;380,381,395;,
3;380,395,394;,
3;381,382,396;,
3;381,396,395;,
3;382,383,397;,
3;382,397,396;,
3;383,384,398;,
3;383,398,397;,
3;384,385,399;,
3;384,399,398;,
3;385,31,399;,
3;2,386,400;,
3;386,387,401;,
3;386,401,400;,
3;387,388,402;,
3;387,402,401;,
3;388,389,403;,
3;388,403,402;,
3;389,390,404;,
3;389,404,403;,
3;390,391,405;,
3;390,405,404;,
3;391,392,406;,
3;391,406,405;,
3;392,393,407;,
3;392,407,406;,
3;393,394,408;,
3;393,408,407;,
3;394,395,409;,
3;394,409,408;,
3;395,396,410;,
3;395,410,409;,
3;396,397,411;,
3;396,411,410;,
3;397,398,412;,
3;397,412,411;,
3;398,399,413;,
3;398,413,412;,
3;399,31,413;,
3;2,400,414;,
3;400,401,415;,
3;400,415,414;,
3;401,402,416;,
3;401,416,415;,
3;402,403,417;,
3;402,417,416;,
3;403,404,418;,
3;403,418,417;,
3;404,405,419;,
3;404,419,418;,
3;405,406,420;,
3;405,420,419;,
3;406,407,421;,
3;406,421,420;,
3;407,408,422;,
3;407,422,421;,
3;408,409,423;,
3;408,423,422;,
3;409,410,424;,
3;409,424,423;,
3;410,411,425;,
3;410,425,424;,
3;411,412,426;,
3;411,426,425;,
3;412,413,427;,
3;412,427,426;,
3;413,31,427;,
3;2,414,428;,
3;414,415,429;,
3;414,429,428;,
3;415,416,430;,
3;415,430,429;,
3;416,417,431;,
3;416,431,430;,
3;417,418,432;,
3;417,432,431;,
3;418,419,433;,
3;418,433,432;,
3;419,420,434;,
3;419,434,433;,
3;420,421,435;,
3;420,435,434;,
3;421,422,436;,
3;421,436,435;,
3;422,423,437;,
3;422,437,436;,
3;423,424,438;,
3;423,438,437;,
3;424,425,439;,
3;424,439,438;,
3;425,426,440;,
3;425,440,439;,
3;426,427,441;,
3;426,441,440;,
3;427,31,441;,
3;2,428,442;,
3;428,429,443;,
3;428,443,442;,
3;429,430,444;,
3;429,444,443;,
3;430,431,445;,
3;430,445,444;,
3;431,432,446;,
3;431,446,445;,
3;432,433,447;,
3;432,447,446;,
3;433,434,448;,
3;433,448,447;,
3;434,435,449;,
3;434,449,448;,
3;435,436,450;,
3;435,450,449;,
3;436,437,451;,
3;436,451,450;,
3;437,438,452;,
3;437,452,451;,
3;438,439,453;,
3;438,453,452;,
3;439,440,454;,
3;439,454,453;,
3;440,441,455;,
3;440,455,454;,
3;441,31,455;,
3;2,442,1;,
3;442,443,5;,
3;442,5,1;,
3;443,444,7;,
3;443,7,5;,
3;444,445,9;,
3;444,9,7;,
3;445,446,11;,
3;445,11,9;,
3;446,447,13;,
3;446,13,11;,
3;447,448,15;,
3;447,15,13;,
3;448,449,17;,
3;448,17,15;,
3;449,450,19;,
3;449,19,17;,
3;450,451,21;,
3;450,21,19;,
3;451,452,23;,
3;451,23,21;,
3;452,453,25;,
3;452,25,23;,
3;453,454,27;,
3;453,27,25;,
3;454,455,29;,
3;454,29,27;,
3;455,31,29;,
3;31,259,145;,
3;31,145,30;,
3;2,3,131;,
3;2,131,245;;
 }
MeshTextureCoords {
 456;
0.602487;0.693640;,
0.242487;0.693640;,
0.252500;0.710000;,
0.612500;0.710000;,
0.592975;0.672083;,
0.232975;0.672083;,
0.584443;0.646410;,
0.224443;0.646410;,
0.577318;0.617909;,
0.217318;0.617909;,
0.571956;0.588008;,
0.211956;0.588008;,
0.568628;0.558207;,
0.208628;0.558207;,
0.567500;0.530000;,
0.207500;0.530000;,
0.567500;0.170000;,
0.207500;0.170000;,
0.568628;0.144802;,
0.208628;0.144802;,
0.571956;0.123876;,
0.211956;0.123876;,
0.577318;0.108271;,
0.217318;0.108271;,
0.584443;0.098771;,
0.224443;0.098771;,
0.592975;0.095851;,
0.232975;0.095851;,
0.602487;0.099657;,
0.242487;0.099657;,
0.612500;0.110000;,
0.252500;0.110000;,
0.608679;0.693975;,
0.605051;0.672736;,
0.601795;0.647348;,
0.599077;0.619085;,
0.597031;0.589363;,
0.595761;0.559673;,
0.595331;0.531504;,
0.595331;0.171504;,
0.595761;0.146268;,
0.597031;0.125231;,
0.599077;0.109447;,
0.601795;0.099709;,
0.605051;0.096503;,
0.608679;0.099992;,
0.615064;0.694962;,
0.617499;0.674661;,
0.619684;0.650115;,
0.621509;0.622554;,
0.622881;0.593361;,
0.623734;0.564000;,
0.624022;0.535942;,
0.624022;0.175942;,
0.623734;0.150595;,
0.622881;0.129229;,
0.621509;0.112917;,
0.619684;0.102476;,
0.617499;0.098429;,
0.615064;0.100980;,
0.621320;0.696553;,
0.629698;0.677763;,
0.637213;0.654572;,
0.643489;0.628143;,
0.648211;0.599802;,
0.651143;0.570969;,
0.652136;0.543090;,
0.652136;0.183090;,
0.651143;0.157564;,
0.648211;0.135670;,
0.643489;0.118506;,
0.637213;0.106932;,
0.629698;0.101530;,
0.621320;0.102570;,
0.627134;0.698667;,
0.641033;0.681885;,
0.653502;0.660495;,
0.663915;0.635571;,
0.671750;0.608361;,
0.676614;0.580231;,
0.678263;0.552591;,
0.678263;0.192591;,
0.676614;0.166826;,
0.671750;0.144229;,
0.663915;0.125933;,
0.653502;0.112856;,
0.641033;0.105652;,
0.627134;0.104684;,
0.632213;0.701198;,
0.650938;0.686821;,
0.667736;0.667588;,
0.681764;0.644465;,
0.692318;0.618611;,
0.698870;0.591322;,
0.701092;0.563967;,
0.701092;0.203967;,
0.698870;0.177917;,
0.692318;0.154479;,
0.681764;0.134828;,
0.667736;0.119949;,
0.650938;0.110588;,
0.632213;0.107216;,
0.636305;0.704020;,
0.658916;0.692323;,
0.679200;0.675495;,
0.696139;0.654380;,
0.708884;0.630037;,
0.716796;0.603686;,
0.719478;0.576649;,
0.719478;0.216649;,
0.716796;0.190281;,
0.708884;0.165905;,
0.696139;0.144743;,
0.679200;0.127856;,
0.658916;0.116091;,
0.636305;0.110038;,
0.639202;0.706991;,
0.664566;0.698116;,
0.687319;0.683820;,
0.706320;0.664819;,
0.720616;0.642066;,
0.729491;0.616703;,
0.732500;0.590000;,
0.732500;0.230000;,
0.729491;0.203297;,
0.720616;0.177934;,
0.706320;0.155181;,
0.687319;0.136180;,
0.664566;0.121884;,
0.639202;0.113009;,
0.774203;0.886991;,
0.747500;0.890000;,
0.799566;0.878116;,
0.822319;0.863820;,
0.841320;0.844819;,
0.855616;0.822066;,
0.864491;0.796703;,
0.867500;0.770000;,
0.867500;0.410000;,
0.864491;0.383297;,
0.855616;0.357934;,
0.841320;0.335181;,
0.822319;0.316180;,
0.799566;0.301884;,
0.774203;0.293009;,
0.747500;0.290000;,
0.775761;0.889962;,
0.802605;0.883909;,
0.826686;0.872144;,
0.846796;0.855257;,
0.861927;0.834095;,
0.871321;0.809719;,
0.874505;0.783351;,
0.874505;0.423351;,
0.871321;0.396314;,
0.861927;0.369963;,
0.846796;0.345620;,
0.826686;0.324505;,
0.802605;0.307677;,
0.775761;0.295980;,
0.775903;0.892784;,
0.802881;0.889412;,
0.827083;0.880051;,
0.847294;0.865172;,
0.862501;0.845521;,
0.871941;0.822083;,
0.875141;0.796033;,
0.875141;0.436033;,
0.871941;0.408678;,
0.862501;0.381389;,
0.847294;0.355535;,
0.827083;0.332412;,
0.802881;0.313179;,
0.775903;0.298801;,
0.774620;0.895316;,
0.800380;0.894348;,
0.823489;0.887144;,
0.842787;0.874067;,
0.857307;0.855771;,
0.866321;0.833174;,
0.869377;0.807409;,
0.869377;0.447409;,
0.866321;0.419769;,
0.857307;0.391639;,
0.842787;0.364429;,
0.823489;0.339505;,
0.800380;0.318115;,
0.774620;0.301333;,
0.771978;0.897430;,
0.795228;0.898470;,
0.816085;0.893068;,
0.833502;0.881494;,
0.846608;0.864330;,
0.854743;0.842436;,
0.857501;0.816910;,
0.857501;0.456910;,
0.854743;0.429031;,
0.846608;0.400198;,
0.833502;0.371857;,
0.816085;0.345428;,
0.795228;0.322237;,
0.771978;0.303447;,
0.768108;0.899020;,
0.787682;0.901571;,
0.805241;0.897524;,
0.819905;0.887083;,
0.830938;0.870771;,
0.837788;0.849405;,
0.840110;0.824058;,
0.840110;0.464058;,
0.837788;0.436000;,
0.830938;0.406639;,
0.819905;0.377446;,
0.805241;0.349885;,
0.787682;0.325339;,
0.768108;0.305038;,
0.763204;0.900008;,
0.778121;0.903497;,
0.791502;0.900291;,
0.802677;0.890553;,
0.811085;0.874769;,
0.816305;0.853732;,
0.818074;0.828496;,
0.818074;0.468496;,
0.816305;0.440327;,
0.811085;0.410637;,
0.802677;0.380915;,
0.791502;0.352652;,
0.778121;0.327264;,
0.763204;0.306025;,
0.757513;0.900343;,
0.767025;0.904149;,
0.775557;0.901229;,
0.782682;0.891729;,
0.788044;0.876124;,
0.791372;0.855198;,
0.792500;0.830000;,
0.792500;0.470000;,
0.791372;0.441793;,
0.788044;0.411992;,
0.782682;0.382091;,
0.775557;0.353590;,
0.767025;0.327917;,
0.757513;0.306360;,
0.397513;0.900343;,
0.387500;0.890000;,
0.407025;0.904149;,
0.415557;0.901229;,
0.422682;0.891729;,
0.428044;0.876124;,
0.431372;0.855198;,
0.432500;0.830000;,
0.432500;0.470000;,
0.431372;0.441793;,
0.428044;0.411992;,
0.422682;0.382091;,
0.415557;0.353590;,
0.407025;0.327917;,
0.397513;0.306360;,
0.387500;0.290000;,
0.391321;0.900008;,
0.394949;0.903497;,
0.398205;0.900291;,
0.400923;0.890553;,
0.402969;0.874769;,
0.404239;0.853732;,
0.404669;0.828496;,
0.404669;0.468496;,
0.404239;0.440327;,
0.402969;0.410637;,
0.400923;0.380915;,
0.398205;0.352652;,
0.394949;0.327264;,
0.391321;0.306025;,
0.384936;0.899020;,
0.382501;0.901571;,
0.380316;0.897524;,
0.378491;0.887083;,
0.377119;0.870771;,
0.376266;0.849405;,
0.375978;0.824058;,
0.375978;0.464058;,
0.376266;0.436000;,
0.377119;0.406639;,
0.378491;0.377446;,
0.380316;0.349885;,
0.382501;0.325339;,
0.384936;0.305038;,
0.378680;0.897430;,
0.370302;0.898470;,
0.362787;0.893068;,
0.356511;0.881494;,
0.351789;0.864330;,
0.348857;0.842436;,
0.347864;0.816910;,
0.347864;0.456910;,
0.348857;0.429031;,
0.351789;0.400198;,
0.356511;0.371857;,
0.362787;0.345428;,
0.370302;0.322237;,
0.378680;0.303447;,
0.372866;0.895316;,
0.358967;0.894348;,
0.346498;0.887144;,
0.336085;0.874067;,
0.328250;0.855771;,
0.323386;0.833174;,
0.321737;0.807409;,
0.321737;0.447409;,
0.323386;0.419769;,
0.328250;0.391639;,
0.336085;0.364429;,
0.346498;0.339505;,
0.358967;0.318115;,
0.372866;0.301333;,
0.367787;0.892784;,
0.349062;0.889412;,
0.332264;0.880051;,
0.318236;0.865172;,
0.307682;0.845521;,
0.301130;0.822083;,
0.298909;0.796033;,
0.298909;0.436033;,
0.301130;0.408678;,
0.307682;0.381389;,
0.318236;0.355535;,
0.332264;0.332412;,
0.349062;0.313179;,
0.367787;0.298801;,
0.363695;0.889962;,
0.341084;0.883909;,
0.320800;0.872144;,
0.303861;0.855257;,
0.291116;0.834095;,
0.283204;0.809719;,
0.280522;0.783351;,
0.280522;0.423351;,
0.283204;0.396314;,
0.291116;0.369963;,
0.303861;0.345620;,
0.320800;0.324505;,
0.341084;0.307677;,
0.363695;0.295980;,
0.360797;0.886991;,
0.335434;0.878116;,
0.312681;0.863820;,
0.293680;0.844819;,
0.279384;0.822066;,
0.270509;0.796703;,
0.267500;0.770000;,
0.267500;0.410000;,
0.270509;0.383297;,
0.279384;0.357934;,
0.293680;0.335181;,
0.312681;0.316180;,
0.335434;0.301884;,
0.360797;0.293009;,
0.225797;0.706991;,
0.200434;0.698116;,
0.177681;0.683820;,
0.158680;0.664819;,
0.144384;0.642066;,
0.135509;0.616703;,
0.132500;0.590000;,
0.132500;0.230000;,
0.135509;0.203297;,
0.144384;0.177934;,
0.158680;0.155181;,
0.177681;0.136180;,
0.200434;0.121884;,
0.225797;0.113009;,
0.224239;0.704020;,
0.197395;0.692323;,
0.173314;0.675495;,
0.153204;0.654380;,
0.138073;0.630037;,
0.128679;0.603686;,
0.125495;0.576649;,
0.125495;0.216649;,
0.128679;0.190281;,
0.138073;0.165905;,
0.153204;0.144743;,
0.173314;0.127856;,
0.197395;0.116091;,
0.224239;0.110038;,
0.224097;0.701198;,
0.197119;0.686821;,
0.172917;0.667588;,
0.152706;0.644465;,
0.137499;0.618611;,
0.128059;0.591322;,
0.124859;0.563967;,
0.124859;0.203967;,
0.128059;0.177917;,
0.137499;0.154479;,
0.152706;0.134828;,
0.172917;0.119949;,
0.197119;0.110588;,
0.224097;0.107216;,
0.225380;0.698667;,
0.199620;0.681885;,
0.176511;0.660495;,
0.157213;0.635571;,
0.142693;0.608361;,
0.133679;0.580231;,
0.130623;0.552591;,
0.130623;0.192591;,
0.133679;0.166826;,
0.142693;0.144229;,
0.157213;0.125933;,
0.176511;0.112856;,
0.199620;0.105652;,
0.225380;0.104684;,
0.228022;0.696553;,
0.204772;0.677763;,
0.183915;0.654572;,
0.166498;0.628143;,
0.153392;0.599802;,
0.145257;0.570969;,
0.142499;0.543090;,
0.142499;0.183090;,
0.145257;0.157564;,
0.153392;0.135670;,
0.166498;0.118506;,
0.183915;0.106932;,
0.204772;0.101530;,
0.228022;0.102570;,
0.231892;0.694962;,
0.212318;0.674661;,
0.194759;0.650115;,
0.180095;0.622554;,
0.169062;0.593361;,
0.162212;0.564000;,
0.159890;0.535942;,
0.159890;0.175942;,
0.162212;0.150595;,
0.169062;0.129229;,
0.180095;0.112917;,
0.194759;0.102476;,
0.212318;0.098429;,
0.231892;0.100980;,
0.236796;0.693975;,
0.221879;0.672736;,
0.208498;0.647348;,
0.197323;0.619085;,
0.188915;0.589363;,
0.183695;0.559673;,
0.181926;0.531504;,
0.181926;0.171504;,
0.183695;0.146268;,
0.188915;0.125231;,
0.197323;0.109447;,
0.208498;0.099709;,
0.221879;0.096503;,
0.236796;0.099992;;
}
}
 }
